%YAML 1.1
%TAG !u! tag:unity3d.com,2011:
--- !u!1 &2121477561751286694
GameObject:
  m_ObjectHideFlags: 0
  m_CorrespondingSourceObject: {fileID: 0}
  m_PrefabInstance: {fileID: 0}
  m_PrefabAsset: {fileID: 0}
  serializedVersion: 6
  m_Component:
  - component: {fileID: 2121477561751286692}
  - component: {fileID: 2121477561751286693}
  m_Layer: 0
  m_Name: SceneManager
  m_TagString: Untagged
  m_Icon: {fileID: 0}
  m_NavMeshLayer: 0
  m_StaticEditorFlags: 0
  m_IsActive: 1
--- !u!4 &2121477561751286692
Transform:
  m_ObjectHideFlags: 0
  m_CorrespondingSourceObject: {fileID: 0}
  m_PrefabInstance: {fileID: 0}
  m_PrefabAsset: {fileID: 0}
  m_GameObject: {fileID: 2121477561751286694}
  m_LocalRotation: {x: 0, y: 0, z: 0, w: 1}
  m_LocalPosition: {x: 0, y: 0, z: 0}
  m_LocalScale: {x: 1, y: 1, z: 1}
  m_ConstrainProportionsScale: 0
  m_Children: []
  m_Father: {fileID: 0}
  m_RootOrder: 0
  m_LocalEulerAnglesHint: {x: 0, y: 0, z: 0}
--- !u!114 &2121477561751286693
MonoBehaviour:
  m_ObjectHideFlags: 0
  m_CorrespondingSourceObject: {fileID: 0}
  m_PrefabInstance: {fileID: 0}
  m_PrefabAsset: {fileID: 0}
  m_GameObject: {fileID: 2121477561751286694}
  m_Enabled: 1
  m_EditorHideFlags: 0
  m_Script: {fileID: 11500000, guid: 62bd8954f4f894e40a5577685d50f8ce, type: 3}
  m_Name: 
  m_EditorClassIdentifier: 
  defaultScene: TitleScreen
  titleScreenName: TitleScreen
  currentLevel:
    name: 
    sceneName: 
    seen: 0
    completed: 0
  levels:
  - name: 
    sceneName: 
    seen: 0
    completed: 0
  - name: Title Screen
    sceneName: TitleScreen
    seen: 0
    completed: 1
  - name: 'Level 1: Tutorial'
    sceneName: 01_TutorialMove
    seen: 0
    completed: 0
  - name: 'Level 2: Jump'
    sceneName: 02_TutorialJump
    seen: 0
    completed: 0
  - name: 'Level 3: Don''t die'
    sceneName: 03_TutorialSpikes
    seen: 0
    completed: 0
  - name: 'Level 4: Push the box'
    sceneName: 04_TutorialBoxes
    seen: 0
    completed: 0
  - name: 'Level 5: Upside-down'
    sceneName: 05_TutorialGravityLever
    seen: 0
    completed: 0
  - name: 'Level 6: Look, clouds!'
    sceneName: 05.5_TutorialOneWayPlatforms
    seen: 0
    completed: 0
  - name: 'Level 7: Be careful!'
    sceneName: 06_OneWayPlatformsGravity
    seen: 0
    completed: 0
  - name: 'Level 8: Not so obvious'
    sceneName: 07_OneWayPlatformsBox
    seen: 0
    completed: 0
  - name: Level 9 A Gem? I want to touch it!
    sceneName: 08_TutorialDashGem
    seen: 0
    completed: 0
  - name: 'Level 10: Dash! But, when?'
    sceneName: 09_DoubleGemGravityBait
    seen: 0
    completed: 0
  - name: 'Level 11: Haha, try again!'
    sceneName: 10_GoOnGoBackGravitySwitch
    seen: 0
    completed: 0
  - name: Thanks for playing!
    sceneName: ThanksForPlaying
    seen: 0
    completed: 0
  - name: Thanks for playing! 2
    sceneName: ThanksForPlaying2
    seen: 0
    completed: 0
