%YAML 1.1
%TAG !u! tag:unity3d.com,2011:
--- !u!74 &7400000
AnimationClip:
  m_ObjectHideFlags: 0
  m_CorrespondingSourceObject: {fileID: 0}
  m_PrefabInstance: {fileID: 0}
  m_PrefabAsset: {fileID: 0}
  m_Name: TutorialMoveJump
  serializedVersion: 6
  m_Legacy: 0
  m_Compressed: 0
  m_UseHighQualityCurve: 1
  m_RotationCurves: []
  m_CompressedRotationCurves: []
  m_EulerCurves: []
  m_PositionCurves: []
  m_ScaleCurves: []
  m_FloatCurves: []
  m_PPtrCurves:
  - curve:
    - time: 0
      value: {fileID: 2038511257, guid: 52cd9452ff6be124e931737807ca763a, type: 3}
    - time: 0.33333334
      value: {fileID: 1001709705, guid: 52cd9452ff6be124e931737807ca763a, type: 3}
    - time: 0.41666666
      value: {fileID: 254412150, guid: 52cd9452ff6be124e931737807ca763a, type: 3}
    - time: 0.6666667
      value: {fileID: 1001709705, guid: 52cd9452ff6be124e931737807ca763a, type: 3}
    - time: 0.75
      value: {fileID: 2038511257, guid: 52cd9452ff6be124e931737807ca763a, type: 3}
    attribute: m_Sprite
    path: KeyboardKey_A_0
    classID: 212
    script: {fileID: 0}
  - curve:
    - time: 0
      value: {fileID: 2021863985, guid: 40cd429b95f186f41826b2870f3097fa, type: 3}
    - time: 0.8333333
      value: {fileID: 304220599, guid: 40cd429b95f186f41826b2870f3097fa, type: 3}
    - time: 0.9166667
      value: {fileID: -559969528, guid: 40cd429b95f186f41826b2870f3097fa, type: 3}
    - time: 1.1666666
      value: {fileID: 304220599, guid: 40cd429b95f186f41826b2870f3097fa, type: 3}
    - time: 1.25
      value: {fileID: 2021863985, guid: 40cd429b95f186f41826b2870f3097fa, type: 3}
    attribute: m_Sprite
    path: KeyboardKey_D_0
    classID: 212
    script: {fileID: 0}
  - curve:
    - time: 0
      value: {fileID: 625783868, guid: e43e0637a6d677c46b0879da3b073174, type: 3}
    - time: 1.3333334
      value: {fileID: 1327677952, guid: e43e0637a6d677c46b0879da3b073174, type: 3}
    - time: 1.4166666
      value: {fileID: -1783711788, guid: e43e0637a6d677c46b0879da3b073174, type: 3}
    - time: 1.6666666
      value: {fileID: 1327677952, guid: e43e0637a6d677c46b0879da3b073174, type: 3}
    - time: 1.75
      value: {fileID: 625783868, guid: e43e0637a6d677c46b0879da3b073174, type: 3}
    attribute: m_Sprite
    path: KeyboardSpacebar_0
    classID: 212
    script: {fileID: 0}
  m_SampleRate: 60
  m_WrapMode: 0
  m_Bounds:
    m_Center: {x: 0, y: 0, z: 0}
    m_Extent: {x: 0, y: 0, z: 0}
  m_ClipBindingConstant:
    genericBindings:
    - serializedVersion: 2
      path: 1449936793
      attribute: 0
      script: {fileID: 0}
      typeID: 212
      customType: 23
      isPPtrCurve: 1
    - serializedVersion: 2
      path: 1353155954
      attribute: 0
      script: {fileID: 0}
      typeID: 212
      customType: 23
      isPPtrCurve: 1
    - serializedVersion: 2
      path: 515773385
      attribute: 0
      script: {fileID: 0}
      typeID: 212
      customType: 23
      isPPtrCurve: 1
    pptrCurveMapping:
    - {fileID: 2038511257, guid: 52cd9452ff6be124e931737807ca763a, type: 3}
    - {fileID: 1001709705, guid: 52cd9452ff6be124e931737807ca763a, type: 3}
    - {fileID: 254412150, guid: 52cd9452ff6be124e931737807ca763a, type: 3}
    - {fileID: 1001709705, guid: 52cd9452ff6be124e931737807ca763a, type: 3}
    - {fileID: 2038511257, guid: 52cd9452ff6be124e931737807ca763a, type: 3}
    - {fileID: 2021863985, guid: 40cd429b95f186f41826b2870f3097fa, type: 3}
    - {fileID: 304220599, guid: 40cd429b95f186f41826b2870f3097fa, type: 3}
    - {fileID: -559969528, guid: 40cd429b95f186f41826b2870f3097fa, type: 3}
    - {fileID: 304220599, guid: 40cd429b95f186f41826b2870f3097fa, type: 3}
    - {fileID: 2021863985, guid: 40cd429b95f186f41826b2870f3097fa, type: 3}
    - {fileID: 625783868, guid: e43e0637a6d677c46b0879da3b073174, type: 3}
    - {fileID: 1327677952, guid: e43e0637a6d677c46b0879da3b073174, type: 3}
    - {fileID: -1783711788, guid: e43e0637a6d677c46b0879da3b073174, type: 3}
    - {fileID: 1327677952, guid: e43e0637a6d677c46b0879da3b073174, type: 3}
    - {fileID: 625783868, guid: e43e0637a6d677c46b0879da3b073174, type: 3}
  m_AnimationClipSettings:
    serializedVersion: 2
    m_AdditiveReferencePoseClip: {fileID: 0}
    m_AdditiveReferencePoseTime: 0
    m_StartTime: 0
    m_StopTime: 1.7666667
    m_OrientationOffsetY: 0
    m_Level: 0
    m_CycleOffset: 0
    m_HasAdditiveReferencePose: 0
    m_LoopTime: 1
    m_LoopBlend: 0
    m_LoopBlendOrientation: 0
    m_LoopBlendPositionY: 0
    m_LoopBlendPositionXZ: 0
    m_KeepOriginalOrientation: 0
    m_KeepOriginalPositionY: 1
    m_KeepOriginalPositionXZ: 0
    m_HeightFromFeet: 0
    m_Mirror: 0
  m_EditorCurves: []
  m_EulerEditorCurves: []
  m_HasGenericRootTransform: 0
  m_HasMotionFloatCurves: 0
  m_Events: []
