%YAML 1.1
%TAG !u! tag:unity3d.com,2011:
--- !u!1 &5496464685065026294
GameObject:
  m_ObjectHideFlags: 0
  m_CorrespondingSourceObject: {fileID: 0}
  m_PrefabInstance: {fileID: 0}
  m_PrefabAsset: {fileID: 0}
  serializedVersion: 6
  m_Component:
  - component: {fileID: 431375677712250430}
  - component: {fileID: 4942074591113237702}
  m_Layer: 0
  m_Name: DefaultLevel
  m_TagString: Untagged
  m_Icon: {fileID: 0}
  m_NavMeshLayer: 0
  m_StaticEditorFlags: 0
  m_IsActive: 1
--- !u!4 &431375677712250430
Transform:
  m_ObjectHideFlags: 0
  m_CorrespondingSourceObject: {fileID: 0}
  m_PrefabInstance: {fileID: 0}
  m_PrefabAsset: {fileID: 0}
  m_GameObject: {fileID: 5496464685065026294}
  m_LocalRotation: {x: 0, y: 0, z: 0, w: 1}
  m_LocalPosition: {x: 0, y: 0, z: 0}
  m_LocalScale: {x: 1, y: 1, z: 1}
  m_ConstrainProportionsScale: 0
  m_Children:
  - {fileID: 8141219710031292684}
  m_Father: {fileID: 0}
  m_RootOrder: 0
  m_LocalEulerAnglesHint: {x: 0, y: 0, z: 0}
--- !u!156049354 &4942074591113237702
Grid:
  m_ObjectHideFlags: 0
  m_CorrespondingSourceObject: {fileID: 0}
  m_PrefabInstance: {fileID: 0}
  m_PrefabAsset: {fileID: 0}
  m_GameObject: {fileID: 5496464685065026294}
  m_Enabled: 1
  m_CellSize: {x: 1, y: 1, z: 0}
  m_CellGap: {x: 0, y: 0, z: 0}
  m_CellLayout: 0
  m_CellSwizzle: 0
--- !u!1 &7582913429681297737
GameObject:
  m_ObjectHideFlags: 0
  m_CorrespondingSourceObject: {fileID: 0}
  m_PrefabInstance: {fileID: 0}
  m_PrefabAsset: {fileID: 0}
  serializedVersion: 6
  m_Component:
  - component: {fileID: 8141219710031292684}
  - component: {fileID: 1076540270487875}
  - component: {fileID: 4276666593265766773}
  m_Layer: 0
  m_Name: Layer1
  m_TagString: Untagged
  m_Icon: {fileID: 0}
  m_NavMeshLayer: 0
  m_StaticEditorFlags: 0
  m_IsActive: 1
--- !u!4 &8141219710031292684
Transform:
  m_ObjectHideFlags: 0
  m_CorrespondingSourceObject: {fileID: 0}
  m_PrefabInstance: {fileID: 0}
  m_PrefabAsset: {fileID: 0}
  m_GameObject: {fileID: 7582913429681297737}
  m_LocalRotation: {x: -0, y: -0, z: -0, w: 1}
  m_LocalPosition: {x: 0, y: 0, z: 0}
  m_LocalScale: {x: 1, y: 1, z: 1}
  m_ConstrainProportionsScale: 0
  m_Children: []
  m_Father: {fileID: 431375677712250430}
  m_RootOrder: 0
  m_LocalEulerAnglesHint: {x: 0, y: 0, z: 0}
--- !u!1839735485 &1076540270487875
Tilemap:
  m_ObjectHideFlags: 0
  m_CorrespondingSourceObject: {fileID: 0}
  m_PrefabInstance: {fileID: 0}
  m_PrefabAsset: {fileID: 0}
  m_GameObject: {fileID: 7582913429681297737}
  m_Enabled: 1
  m_Tiles:
  - first: {x: 0, y: -8, z: 0}
    second:
      serializedVersion: 2
      m_TileIndex: 160
      m_TileSpriteIndex: 160
      m_TileMatrixIndex: 0
      m_TileColorIndex: 0
      m_TileObjectToInstantiateIndex: 65535
      dummyAlignment: 0
      m_AllTileFlags: 1073741825
  - first: {x: 1, y: -8, z: 0}
    second:
      serializedVersion: 2
      m_TileIndex: 161
      m_TileSpriteIndex: 161
      m_TileMatrixIndex: 0
      m_TileColorIndex: 0
      m_TileObjectToInstantiateIndex: 65535
      dummyAlignment: 0
      m_AllTileFlags: 1073741825
  - first: {x: 2, y: -8, z: 0}
    second:
      serializedVersion: 2
      m_TileIndex: 162
      m_TileSpriteIndex: 162
      m_TileMatrixIndex: 0
      m_TileColorIndex: 0
      m_TileObjectToInstantiateIndex: 65535
      dummyAlignment: 0
      m_AllTileFlags: 1073741825
  - first: {x: 3, y: -8, z: 0}
    second:
      serializedVersion: 2
      m_TileIndex: 163
      m_TileSpriteIndex: 163
      m_TileMatrixIndex: 0
      m_TileColorIndex: 0
      m_TileObjectToInstantiateIndex: 65535
      dummyAlignment: 0
      m_AllTileFlags: 1073741825
  - first: {x: 4, y: -8, z: 0}
    second:
      serializedVersion: 2
      m_TileIndex: 164
      m_TileSpriteIndex: 164
      m_TileMatrixIndex: 0
      m_TileColorIndex: 0
      m_TileObjectToInstantiateIndex: 65535
      dummyAlignment: 0
      m_AllTileFlags: 1073741825
  - first: {x: 5, y: -8, z: 0}
    second:
      serializedVersion: 2
      m_TileIndex: 165
      m_TileSpriteIndex: 165
      m_TileMatrixIndex: 0
      m_TileColorIndex: 0
      m_TileObjectToInstantiateIndex: 65535
      dummyAlignment: 0
      m_AllTileFlags: 1073741825
  - first: {x: 6, y: -8, z: 0}
    second:
      serializedVersion: 2
      m_TileIndex: 166
      m_TileSpriteIndex: 166
      m_TileMatrixIndex: 0
      m_TileColorIndex: 0
      m_TileObjectToInstantiateIndex: 65535
      dummyAlignment: 0
      m_AllTileFlags: 1073741825
  - first: {x: 7, y: -8, z: 0}
    second:
      serializedVersion: 2
      m_TileIndex: 167
      m_TileSpriteIndex: 167
      m_TileMatrixIndex: 0
      m_TileColorIndex: 0
      m_TileObjectToInstantiateIndex: 65535
      dummyAlignment: 0
      m_AllTileFlags: 1073741825
  - first: {x: 8, y: -8, z: 0}
    second:
      serializedVersion: 2
      m_TileIndex: 168
      m_TileSpriteIndex: 168
      m_TileMatrixIndex: 0
      m_TileColorIndex: 0
      m_TileObjectToInstantiateIndex: 65535
      dummyAlignment: 0
      m_AllTileFlags: 1073741825
  - first: {x: 9, y: -8, z: 0}
    second:
      serializedVersion: 2
      m_TileIndex: 169
      m_TileSpriteIndex: 169
      m_TileMatrixIndex: 0
      m_TileColorIndex: 0
      m_TileObjectToInstantiateIndex: 65535
      dummyAlignment: 0
      m_AllTileFlags: 1073741825
  - first: {x: 10, y: -8, z: 0}
    second:
      serializedVersion: 2
      m_TileIndex: 170
      m_TileSpriteIndex: 170
      m_TileMatrixIndex: 0
      m_TileColorIndex: 0
      m_TileObjectToInstantiateIndex: 65535
      dummyAlignment: 0
      m_AllTileFlags: 1073741825
  - first: {x: 11, y: -8, z: 0}
    second:
      serializedVersion: 2
      m_TileIndex: 171
      m_TileSpriteIndex: 171
      m_TileMatrixIndex: 0
      m_TileColorIndex: 0
      m_TileObjectToInstantiateIndex: 65535
      dummyAlignment: 0
      m_AllTileFlags: 1073741825
  - first: {x: 12, y: -8, z: 0}
    second:
      serializedVersion: 2
      m_TileIndex: 172
      m_TileSpriteIndex: 172
      m_TileMatrixIndex: 0
      m_TileColorIndex: 0
      m_TileObjectToInstantiateIndex: 65535
      dummyAlignment: 0
      m_AllTileFlags: 1073741825
  - first: {x: 13, y: -8, z: 0}
    second:
      serializedVersion: 2
      m_TileIndex: 173
      m_TileSpriteIndex: 173
      m_TileMatrixIndex: 0
      m_TileColorIndex: 0
      m_TileObjectToInstantiateIndex: 65535
      dummyAlignment: 0
      m_AllTileFlags: 1073741825
  - first: {x: 14, y: -8, z: 0}
    second:
      serializedVersion: 2
      m_TileIndex: 174
      m_TileSpriteIndex: 174
      m_TileMatrixIndex: 0
      m_TileColorIndex: 0
      m_TileObjectToInstantiateIndex: 65535
      dummyAlignment: 0
      m_AllTileFlags: 1073741825
  - first: {x: 15, y: -8, z: 0}
    second:
      serializedVersion: 2
      m_TileIndex: 175
      m_TileSpriteIndex: 175
      m_TileMatrixIndex: 0
      m_TileColorIndex: 0
      m_TileObjectToInstantiateIndex: 65535
      dummyAlignment: 0
      m_AllTileFlags: 1073741825
  - first: {x: 16, y: -8, z: 0}
    second:
      serializedVersion: 2
      m_TileIndex: 176
      m_TileSpriteIndex: 176
      m_TileMatrixIndex: 0
      m_TileColorIndex: 0
      m_TileObjectToInstantiateIndex: 65535
      dummyAlignment: 0
      m_AllTileFlags: 1073741825
  - first: {x: 17, y: -8, z: 0}
    second:
      serializedVersion: 2
      m_TileIndex: 177
      m_TileSpriteIndex: 177
      m_TileMatrixIndex: 0
      m_TileColorIndex: 0
      m_TileObjectToInstantiateIndex: 65535
      dummyAlignment: 0
      m_AllTileFlags: 1073741825
  - first: {x: 18, y: -8, z: 0}
    second:
      serializedVersion: 2
      m_TileIndex: 178
      m_TileSpriteIndex: 178
      m_TileMatrixIndex: 0
      m_TileColorIndex: 0
      m_TileObjectToInstantiateIndex: 65535
      dummyAlignment: 0
      m_AllTileFlags: 1073741825
  - first: {x: 19, y: -8, z: 0}
    second:
      serializedVersion: 2
      m_TileIndex: 179
      m_TileSpriteIndex: 179
      m_TileMatrixIndex: 0
      m_TileColorIndex: 0
      m_TileObjectToInstantiateIndex: 65535
      dummyAlignment: 0
      m_AllTileFlags: 1073741825
  - first: {x: 0, y: -7, z: 0}
    second:
      serializedVersion: 2
      m_TileIndex: 140
      m_TileSpriteIndex: 140
      m_TileMatrixIndex: 0
      m_TileColorIndex: 0
      m_TileObjectToInstantiateIndex: 65535
      dummyAlignment: 0
      m_AllTileFlags: 1073741825
  - first: {x: 1, y: -7, z: 0}
    second:
      serializedVersion: 2
      m_TileIndex: 141
      m_TileSpriteIndex: 141
      m_TileMatrixIndex: 0
      m_TileColorIndex: 0
      m_TileObjectToInstantiateIndex: 65535
      dummyAlignment: 0
      m_AllTileFlags: 1073741825
  - first: {x: 2, y: -7, z: 0}
    second:
      serializedVersion: 2
      m_TileIndex: 142
      m_TileSpriteIndex: 142
      m_TileMatrixIndex: 0
      m_TileColorIndex: 0
      m_TileObjectToInstantiateIndex: 65535
      dummyAlignment: 0
      m_AllTileFlags: 1073741825
  - first: {x: 3, y: -7, z: 0}
    second:
      serializedVersion: 2
      m_TileIndex: 143
      m_TileSpriteIndex: 143
      m_TileMatrixIndex: 0
      m_TileColorIndex: 0
      m_TileObjectToInstantiateIndex: 65535
      dummyAlignment: 0
      m_AllTileFlags: 1073741825
  - first: {x: 4, y: -7, z: 0}
    second:
      serializedVersion: 2
      m_TileIndex: 144
      m_TileSpriteIndex: 144
      m_TileMatrixIndex: 0
      m_TileColorIndex: 0
      m_TileObjectToInstantiateIndex: 65535
      dummyAlignment: 0
      m_AllTileFlags: 1073741825
  - first: {x: 5, y: -7, z: 0}
    second:
      serializedVersion: 2
      m_TileIndex: 145
      m_TileSpriteIndex: 145
      m_TileMatrixIndex: 0
      m_TileColorIndex: 0
      m_TileObjectToInstantiateIndex: 65535
      dummyAlignment: 0
      m_AllTileFlags: 1073741825
  - first: {x: 6, y: -7, z: 0}
    second:
      serializedVersion: 2
      m_TileIndex: 146
      m_TileSpriteIndex: 146
      m_TileMatrixIndex: 0
      m_TileColorIndex: 0
      m_TileObjectToInstantiateIndex: 65535
      dummyAlignment: 0
      m_AllTileFlags: 1073741825
  - first: {x: 7, y: -7, z: 0}
    second:
      serializedVersion: 2
      m_TileIndex: 147
      m_TileSpriteIndex: 147
      m_TileMatrixIndex: 0
      m_TileColorIndex: 0
      m_TileObjectToInstantiateIndex: 65535
      dummyAlignment: 0
      m_AllTileFlags: 1073741825
  - first: {x: 8, y: -7, z: 0}
    second:
      serializedVersion: 2
      m_TileIndex: 148
      m_TileSpriteIndex: 148
      m_TileMatrixIndex: 0
      m_TileColorIndex: 0
      m_TileObjectToInstantiateIndex: 65535
      dummyAlignment: 0
      m_AllTileFlags: 1073741825
  - first: {x: 9, y: -7, z: 0}
    second:
      serializedVersion: 2
      m_TileIndex: 149
      m_TileSpriteIndex: 149
      m_TileMatrixIndex: 0
      m_TileColorIndex: 0
      m_TileObjectToInstantiateIndex: 65535
      dummyAlignment: 0
      m_AllTileFlags: 1073741825
  - first: {x: 10, y: -7, z: 0}
    second:
      serializedVersion: 2
      m_TileIndex: 150
      m_TileSpriteIndex: 150
      m_TileMatrixIndex: 0
      m_TileColorIndex: 0
      m_TileObjectToInstantiateIndex: 65535
      dummyAlignment: 0
      m_AllTileFlags: 1073741825
  - first: {x: 11, y: -7, z: 0}
    second:
      serializedVersion: 2
      m_TileIndex: 151
      m_TileSpriteIndex: 151
      m_TileMatrixIndex: 0
      m_TileColorIndex: 0
      m_TileObjectToInstantiateIndex: 65535
      dummyAlignment: 0
      m_AllTileFlags: 1073741825
  - first: {x: 12, y: -7, z: 0}
    second:
      serializedVersion: 2
      m_TileIndex: 152
      m_TileSpriteIndex: 152
      m_TileMatrixIndex: 0
      m_TileColorIndex: 0
      m_TileObjectToInstantiateIndex: 65535
      dummyAlignment: 0
      m_AllTileFlags: 1073741825
  - first: {x: 13, y: -7, z: 0}
    second:
      serializedVersion: 2
      m_TileIndex: 153
      m_TileSpriteIndex: 153
      m_TileMatrixIndex: 0
      m_TileColorIndex: 0
      m_TileObjectToInstantiateIndex: 65535
      dummyAlignment: 0
      m_AllTileFlags: 1073741825
  - first: {x: 14, y: -7, z: 0}
    second:
      serializedVersion: 2
      m_TileIndex: 154
      m_TileSpriteIndex: 154
      m_TileMatrixIndex: 0
      m_TileColorIndex: 0
      m_TileObjectToInstantiateIndex: 65535
      dummyAlignment: 0
      m_AllTileFlags: 1073741825
  - first: {x: 15, y: -7, z: 0}
    second:
      serializedVersion: 2
      m_TileIndex: 155
      m_TileSpriteIndex: 155
      m_TileMatrixIndex: 0
      m_TileColorIndex: 0
      m_TileObjectToInstantiateIndex: 65535
      dummyAlignment: 0
      m_AllTileFlags: 1073741825
  - first: {x: 16, y: -7, z: 0}
    second:
      serializedVersion: 2
      m_TileIndex: 156
      m_TileSpriteIndex: 156
      m_TileMatrixIndex: 0
      m_TileColorIndex: 0
      m_TileObjectToInstantiateIndex: 65535
      dummyAlignment: 0
      m_AllTileFlags: 1073741825
  - first: {x: 17, y: -7, z: 0}
    second:
      serializedVersion: 2
      m_TileIndex: 157
      m_TileSpriteIndex: 157
      m_TileMatrixIndex: 0
      m_TileColorIndex: 0
      m_TileObjectToInstantiateIndex: 65535
      dummyAlignment: 0
      m_AllTileFlags: 1073741825
  - first: {x: 18, y: -7, z: 0}
    second:
      serializedVersion: 2
      m_TileIndex: 158
      m_TileSpriteIndex: 158
      m_TileMatrixIndex: 0
      m_TileColorIndex: 0
      m_TileObjectToInstantiateIndex: 65535
      dummyAlignment: 0
      m_AllTileFlags: 1073741825
  - first: {x: 19, y: -7, z: 0}
    second:
      serializedVersion: 2
      m_TileIndex: 159
      m_TileSpriteIndex: 159
      m_TileMatrixIndex: 0
      m_TileColorIndex: 0
      m_TileObjectToInstantiateIndex: 65535
      dummyAlignment: 0
      m_AllTileFlags: 1073741825
  - first: {x: 0, y: -6, z: 0}
    second:
      serializedVersion: 2
      m_TileIndex: 120
      m_TileSpriteIndex: 120
      m_TileMatrixIndex: 0
      m_TileColorIndex: 0
      m_TileObjectToInstantiateIndex: 65535
      dummyAlignment: 0
      m_AllTileFlags: 1073741825
  - first: {x: 1, y: -6, z: 0}
    second:
      serializedVersion: 2
      m_TileIndex: 121
      m_TileSpriteIndex: 121
      m_TileMatrixIndex: 0
      m_TileColorIndex: 0
      m_TileObjectToInstantiateIndex: 65535
      dummyAlignment: 0
      m_AllTileFlags: 1073741825
  - first: {x: 2, y: -6, z: 0}
    second:
      serializedVersion: 2
      m_TileIndex: 122
      m_TileSpriteIndex: 122
      m_TileMatrixIndex: 0
      m_TileColorIndex: 0
      m_TileObjectToInstantiateIndex: 65535
      dummyAlignment: 0
      m_AllTileFlags: 1073741825
  - first: {x: 3, y: -6, z: 0}
    second:
      serializedVersion: 2
      m_TileIndex: 123
      m_TileSpriteIndex: 123
      m_TileMatrixIndex: 0
      m_TileColorIndex: 0
      m_TileObjectToInstantiateIndex: 65535
      dummyAlignment: 0
      m_AllTileFlags: 1073741825
  - first: {x: 4, y: -6, z: 0}
    second:
      serializedVersion: 2
      m_TileIndex: 124
      m_TileSpriteIndex: 124
      m_TileMatrixIndex: 0
      m_TileColorIndex: 0
      m_TileObjectToInstantiateIndex: 65535
      dummyAlignment: 0
      m_AllTileFlags: 1073741825
  - first: {x: 5, y: -6, z: 0}
    second:
      serializedVersion: 2
      m_TileIndex: 125
      m_TileSpriteIndex: 125
      m_TileMatrixIndex: 0
      m_TileColorIndex: 0
      m_TileObjectToInstantiateIndex: 65535
      dummyAlignment: 0
      m_AllTileFlags: 1073741825
  - first: {x: 6, y: -6, z: 0}
    second:
      serializedVersion: 2
      m_TileIndex: 126
      m_TileSpriteIndex: 126
      m_TileMatrixIndex: 0
      m_TileColorIndex: 0
      m_TileObjectToInstantiateIndex: 65535
      dummyAlignment: 0
      m_AllTileFlags: 1073741825
  - first: {x: 7, y: -6, z: 0}
    second:
      serializedVersion: 2
      m_TileIndex: 127
      m_TileSpriteIndex: 127
      m_TileMatrixIndex: 0
      m_TileColorIndex: 0
      m_TileObjectToInstantiateIndex: 65535
      dummyAlignment: 0
      m_AllTileFlags: 1073741825
  - first: {x: 8, y: -6, z: 0}
    second:
      serializedVersion: 2
      m_TileIndex: 128
      m_TileSpriteIndex: 128
      m_TileMatrixIndex: 0
      m_TileColorIndex: 0
      m_TileObjectToInstantiateIndex: 65535
      dummyAlignment: 0
      m_AllTileFlags: 1073741825
  - first: {x: 9, y: -6, z: 0}
    second:
      serializedVersion: 2
      m_TileIndex: 129
      m_TileSpriteIndex: 129
      m_TileMatrixIndex: 0
      m_TileColorIndex: 0
      m_TileObjectToInstantiateIndex: 65535
      dummyAlignment: 0
      m_AllTileFlags: 1073741825
  - first: {x: 10, y: -6, z: 0}
    second:
      serializedVersion: 2
      m_TileIndex: 130
      m_TileSpriteIndex: 130
      m_TileMatrixIndex: 0
      m_TileColorIndex: 0
      m_TileObjectToInstantiateIndex: 65535
      dummyAlignment: 0
      m_AllTileFlags: 1073741825
  - first: {x: 11, y: -6, z: 0}
    second:
      serializedVersion: 2
      m_TileIndex: 131
      m_TileSpriteIndex: 131
      m_TileMatrixIndex: 0
      m_TileColorIndex: 0
      m_TileObjectToInstantiateIndex: 65535
      dummyAlignment: 0
      m_AllTileFlags: 1073741825
  - first: {x: 12, y: -6, z: 0}
    second:
      serializedVersion: 2
      m_TileIndex: 132
      m_TileSpriteIndex: 132
      m_TileMatrixIndex: 0
      m_TileColorIndex: 0
      m_TileObjectToInstantiateIndex: 65535
      dummyAlignment: 0
      m_AllTileFlags: 1073741825
  - first: {x: 13, y: -6, z: 0}
    second:
      serializedVersion: 2
      m_TileIndex: 133
      m_TileSpriteIndex: 133
      m_TileMatrixIndex: 0
      m_TileColorIndex: 0
      m_TileObjectToInstantiateIndex: 65535
      dummyAlignment: 0
      m_AllTileFlags: 1073741825
  - first: {x: 14, y: -6, z: 0}
    second:
      serializedVersion: 2
      m_TileIndex: 134
      m_TileSpriteIndex: 134
      m_TileMatrixIndex: 0
      m_TileColorIndex: 0
      m_TileObjectToInstantiateIndex: 65535
      dummyAlignment: 0
      m_AllTileFlags: 1073741825
  - first: {x: 15, y: -6, z: 0}
    second:
      serializedVersion: 2
      m_TileIndex: 135
      m_TileSpriteIndex: 135
      m_TileMatrixIndex: 0
      m_TileColorIndex: 0
      m_TileObjectToInstantiateIndex: 65535
      dummyAlignment: 0
      m_AllTileFlags: 1073741825
  - first: {x: 16, y: -6, z: 0}
    second:
      serializedVersion: 2
      m_TileIndex: 136
      m_TileSpriteIndex: 136
      m_TileMatrixIndex: 0
      m_TileColorIndex: 0
      m_TileObjectToInstantiateIndex: 65535
      dummyAlignment: 0
      m_AllTileFlags: 1073741825
  - first: {x: 17, y: -6, z: 0}
    second:
      serializedVersion: 2
      m_TileIndex: 137
      m_TileSpriteIndex: 137
      m_TileMatrixIndex: 0
      m_TileColorIndex: 0
      m_TileObjectToInstantiateIndex: 65535
      dummyAlignment: 0
      m_AllTileFlags: 1073741825
  - first: {x: 18, y: -6, z: 0}
    second:
      serializedVersion: 2
      m_TileIndex: 138
      m_TileSpriteIndex: 138
      m_TileMatrixIndex: 0
      m_TileColorIndex: 0
      m_TileObjectToInstantiateIndex: 65535
      dummyAlignment: 0
      m_AllTileFlags: 1073741825
  - first: {x: 19, y: -6, z: 0}
    second:
      serializedVersion: 2
      m_TileIndex: 139
      m_TileSpriteIndex: 139
      m_TileMatrixIndex: 0
      m_TileColorIndex: 0
      m_TileObjectToInstantiateIndex: 65535
      dummyAlignment: 0
      m_AllTileFlags: 1073741825
  - first: {x: 0, y: -5, z: 0}
    second:
      serializedVersion: 2
      m_TileIndex: 100
      m_TileSpriteIndex: 100
      m_TileMatrixIndex: 0
      m_TileColorIndex: 0
      m_TileObjectToInstantiateIndex: 65535
      dummyAlignment: 0
      m_AllTileFlags: 1073741825
  - first: {x: 1, y: -5, z: 0}
    second:
      serializedVersion: 2
      m_TileIndex: 101
      m_TileSpriteIndex: 101
      m_TileMatrixIndex: 0
      m_TileColorIndex: 0
      m_TileObjectToInstantiateIndex: 65535
      dummyAlignment: 0
      m_AllTileFlags: 1073741825
  - first: {x: 2, y: -5, z: 0}
    second:
      serializedVersion: 2
      m_TileIndex: 102
      m_TileSpriteIndex: 102
      m_TileMatrixIndex: 0
      m_TileColorIndex: 0
      m_TileObjectToInstantiateIndex: 65535
      dummyAlignment: 0
      m_AllTileFlags: 1073741825
  - first: {x: 3, y: -5, z: 0}
    second:
      serializedVersion: 2
      m_TileIndex: 103
      m_TileSpriteIndex: 103
      m_TileMatrixIndex: 0
      m_TileColorIndex: 0
      m_TileObjectToInstantiateIndex: 65535
      dummyAlignment: 0
      m_AllTileFlags: 1073741825
  - first: {x: 4, y: -5, z: 0}
    second:
      serializedVersion: 2
      m_TileIndex: 104
      m_TileSpriteIndex: 104
      m_TileMatrixIndex: 0
      m_TileColorIndex: 0
      m_TileObjectToInstantiateIndex: 65535
      dummyAlignment: 0
      m_AllTileFlags: 1073741825
  - first: {x: 5, y: -5, z: 0}
    second:
      serializedVersion: 2
      m_TileIndex: 105
      m_TileSpriteIndex: 105
      m_TileMatrixIndex: 0
      m_TileColorIndex: 0
      m_TileObjectToInstantiateIndex: 65535
      dummyAlignment: 0
      m_AllTileFlags: 1073741825
  - first: {x: 6, y: -5, z: 0}
    second:
      serializedVersion: 2
      m_TileIndex: 106
      m_TileSpriteIndex: 106
      m_TileMatrixIndex: 0
      m_TileColorIndex: 0
      m_TileObjectToInstantiateIndex: 65535
      dummyAlignment: 0
      m_AllTileFlags: 1073741825
  - first: {x: 7, y: -5, z: 0}
    second:
      serializedVersion: 2
      m_TileIndex: 107
      m_TileSpriteIndex: 107
      m_TileMatrixIndex: 0
      m_TileColorIndex: 0
      m_TileObjectToInstantiateIndex: 65535
      dummyAlignment: 0
      m_AllTileFlags: 1073741825
  - first: {x: 8, y: -5, z: 0}
    second:
      serializedVersion: 2
      m_TileIndex: 108
      m_TileSpriteIndex: 108
      m_TileMatrixIndex: 0
      m_TileColorIndex: 0
      m_TileObjectToInstantiateIndex: 65535
      dummyAlignment: 0
      m_AllTileFlags: 1073741825
  - first: {x: 9, y: -5, z: 0}
    second:
      serializedVersion: 2
      m_TileIndex: 109
      m_TileSpriteIndex: 109
      m_TileMatrixIndex: 0
      m_TileColorIndex: 0
      m_TileObjectToInstantiateIndex: 65535
      dummyAlignment: 0
      m_AllTileFlags: 1073741825
  - first: {x: 10, y: -5, z: 0}
    second:
      serializedVersion: 2
      m_TileIndex: 110
      m_TileSpriteIndex: 110
      m_TileMatrixIndex: 0
      m_TileColorIndex: 0
      m_TileObjectToInstantiateIndex: 65535
      dummyAlignment: 0
      m_AllTileFlags: 1073741825
  - first: {x: 11, y: -5, z: 0}
    second:
      serializedVersion: 2
      m_TileIndex: 111
      m_TileSpriteIndex: 111
      m_TileMatrixIndex: 0
      m_TileColorIndex: 0
      m_TileObjectToInstantiateIndex: 65535
      dummyAlignment: 0
      m_AllTileFlags: 1073741825
  - first: {x: 12, y: -5, z: 0}
    second:
      serializedVersion: 2
      m_TileIndex: 112
      m_TileSpriteIndex: 112
      m_TileMatrixIndex: 0
      m_TileColorIndex: 0
      m_TileObjectToInstantiateIndex: 65535
      dummyAlignment: 0
      m_AllTileFlags: 1073741825
  - first: {x: 13, y: -5, z: 0}
    second:
      serializedVersion: 2
      m_TileIndex: 113
      m_TileSpriteIndex: 113
      m_TileMatrixIndex: 0
      m_TileColorIndex: 0
      m_TileObjectToInstantiateIndex: 65535
      dummyAlignment: 0
      m_AllTileFlags: 1073741825
  - first: {x: 14, y: -5, z: 0}
    second:
      serializedVersion: 2
      m_TileIndex: 114
      m_TileSpriteIndex: 114
      m_TileMatrixIndex: 0
      m_TileColorIndex: 0
      m_TileObjectToInstantiateIndex: 65535
      dummyAlignment: 0
      m_AllTileFlags: 1073741825
  - first: {x: 15, y: -5, z: 0}
    second:
      serializedVersion: 2
      m_TileIndex: 115
      m_TileSpriteIndex: 115
      m_TileMatrixIndex: 0
      m_TileColorIndex: 0
      m_TileObjectToInstantiateIndex: 65535
      dummyAlignment: 0
      m_AllTileFlags: 1073741825
  - first: {x: 16, y: -5, z: 0}
    second:
      serializedVersion: 2
      m_TileIndex: 116
      m_TileSpriteIndex: 116
      m_TileMatrixIndex: 0
      m_TileColorIndex: 0
      m_TileObjectToInstantiateIndex: 65535
      dummyAlignment: 0
      m_AllTileFlags: 1073741825
  - first: {x: 17, y: -5, z: 0}
    second:
      serializedVersion: 2
      m_TileIndex: 117
      m_TileSpriteIndex: 117
      m_TileMatrixIndex: 0
      m_TileColorIndex: 0
      m_TileObjectToInstantiateIndex: 65535
      dummyAlignment: 0
      m_AllTileFlags: 1073741825
  - first: {x: 18, y: -5, z: 0}
    second:
      serializedVersion: 2
      m_TileIndex: 118
      m_TileSpriteIndex: 118
      m_TileMatrixIndex: 0
      m_TileColorIndex: 0
      m_TileObjectToInstantiateIndex: 65535
      dummyAlignment: 0
      m_AllTileFlags: 1073741825
  - first: {x: 19, y: -5, z: 0}
    second:
      serializedVersion: 2
      m_TileIndex: 119
      m_TileSpriteIndex: 119
      m_TileMatrixIndex: 0
      m_TileColorIndex: 0
      m_TileObjectToInstantiateIndex: 65535
      dummyAlignment: 0
      m_AllTileFlags: 1073741825
  - first: {x: 0, y: -4, z: 0}
    second:
      serializedVersion: 2
      m_TileIndex: 80
      m_TileSpriteIndex: 80
      m_TileMatrixIndex: 0
      m_TileColorIndex: 0
      m_TileObjectToInstantiateIndex: 65535
      dummyAlignment: 0
      m_AllTileFlags: 1073741825
  - first: {x: 1, y: -4, z: 0}
    second:
      serializedVersion: 2
      m_TileIndex: 81
      m_TileSpriteIndex: 81
      m_TileMatrixIndex: 0
      m_TileColorIndex: 0
      m_TileObjectToInstantiateIndex: 65535
      dummyAlignment: 0
      m_AllTileFlags: 1073741825
  - first: {x: 2, y: -4, z: 0}
    second:
      serializedVersion: 2
      m_TileIndex: 82
      m_TileSpriteIndex: 82
      m_TileMatrixIndex: 0
      m_TileColorIndex: 0
      m_TileObjectToInstantiateIndex: 65535
      dummyAlignment: 0
      m_AllTileFlags: 1073741825
  - first: {x: 3, y: -4, z: 0}
    second:
      serializedVersion: 2
      m_TileIndex: 83
      m_TileSpriteIndex: 83
      m_TileMatrixIndex: 0
      m_TileColorIndex: 0
      m_TileObjectToInstantiateIndex: 65535
      dummyAlignment: 0
      m_AllTileFlags: 1073741825
  - first: {x: 4, y: -4, z: 0}
    second:
      serializedVersion: 2
      m_TileIndex: 84
      m_TileSpriteIndex: 84
      m_TileMatrixIndex: 0
      m_TileColorIndex: 0
      m_TileObjectToInstantiateIndex: 65535
      dummyAlignment: 0
      m_AllTileFlags: 1073741825
  - first: {x: 5, y: -4, z: 0}
    second:
      serializedVersion: 2
      m_TileIndex: 85
      m_TileSpriteIndex: 85
      m_TileMatrixIndex: 0
      m_TileColorIndex: 0
      m_TileObjectToInstantiateIndex: 65535
      dummyAlignment: 0
      m_AllTileFlags: 1073741825
  - first: {x: 6, y: -4, z: 0}
    second:
      serializedVersion: 2
      m_TileIndex: 86
      m_TileSpriteIndex: 86
      m_TileMatrixIndex: 0
      m_TileColorIndex: 0
      m_TileObjectToInstantiateIndex: 65535
      dummyAlignment: 0
      m_AllTileFlags: 1073741825
  - first: {x: 7, y: -4, z: 0}
    second:
      serializedVersion: 2
      m_TileIndex: 87
      m_TileSpriteIndex: 87
      m_TileMatrixIndex: 0
      m_TileColorIndex: 0
      m_TileObjectToInstantiateIndex: 65535
      dummyAlignment: 0
      m_AllTileFlags: 1073741825
  - first: {x: 8, y: -4, z: 0}
    second:
      serializedVersion: 2
      m_TileIndex: 88
      m_TileSpriteIndex: 88
      m_TileMatrixIndex: 0
      m_TileColorIndex: 0
      m_TileObjectToInstantiateIndex: 65535
      dummyAlignment: 0
      m_AllTileFlags: 1073741825
  - first: {x: 9, y: -4, z: 0}
    second:
      serializedVersion: 2
      m_TileIndex: 89
      m_TileSpriteIndex: 89
      m_TileMatrixIndex: 0
      m_TileColorIndex: 0
      m_TileObjectToInstantiateIndex: 65535
      dummyAlignment: 0
      m_AllTileFlags: 1073741825
  - first: {x: 10, y: -4, z: 0}
    second:
      serializedVersion: 2
      m_TileIndex: 90
      m_TileSpriteIndex: 90
      m_TileMatrixIndex: 0
      m_TileColorIndex: 0
      m_TileObjectToInstantiateIndex: 65535
      dummyAlignment: 0
      m_AllTileFlags: 1073741825
  - first: {x: 11, y: -4, z: 0}
    second:
      serializedVersion: 2
      m_TileIndex: 91
      m_TileSpriteIndex: 91
      m_TileMatrixIndex: 0
      m_TileColorIndex: 0
      m_TileObjectToInstantiateIndex: 65535
      dummyAlignment: 0
      m_AllTileFlags: 1073741825
  - first: {x: 12, y: -4, z: 0}
    second:
      serializedVersion: 2
      m_TileIndex: 92
      m_TileSpriteIndex: 92
      m_TileMatrixIndex: 0
      m_TileColorIndex: 0
      m_TileObjectToInstantiateIndex: 65535
      dummyAlignment: 0
      m_AllTileFlags: 1073741825
  - first: {x: 13, y: -4, z: 0}
    second:
      serializedVersion: 2
      m_TileIndex: 93
      m_TileSpriteIndex: 93
      m_TileMatrixIndex: 0
      m_TileColorIndex: 0
      m_TileObjectToInstantiateIndex: 65535
      dummyAlignment: 0
      m_AllTileFlags: 1073741825
  - first: {x: 14, y: -4, z: 0}
    second:
      serializedVersion: 2
      m_TileIndex: 94
      m_TileSpriteIndex: 94
      m_TileMatrixIndex: 0
      m_TileColorIndex: 0
      m_TileObjectToInstantiateIndex: 65535
      dummyAlignment: 0
      m_AllTileFlags: 1073741825
  - first: {x: 15, y: -4, z: 0}
    second:
      serializedVersion: 2
      m_TileIndex: 95
      m_TileSpriteIndex: 95
      m_TileMatrixIndex: 0
      m_TileColorIndex: 0
      m_TileObjectToInstantiateIndex: 65535
      dummyAlignment: 0
      m_AllTileFlags: 1073741825
  - first: {x: 16, y: -4, z: 0}
    second:
      serializedVersion: 2
      m_TileIndex: 96
      m_TileSpriteIndex: 96
      m_TileMatrixIndex: 0
      m_TileColorIndex: 0
      m_TileObjectToInstantiateIndex: 65535
      dummyAlignment: 0
      m_AllTileFlags: 1073741825
  - first: {x: 17, y: -4, z: 0}
    second:
      serializedVersion: 2
      m_TileIndex: 97
      m_TileSpriteIndex: 97
      m_TileMatrixIndex: 0
      m_TileColorIndex: 0
      m_TileObjectToInstantiateIndex: 65535
      dummyAlignment: 0
      m_AllTileFlags: 1073741825
  - first: {x: 18, y: -4, z: 0}
    second:
      serializedVersion: 2
      m_TileIndex: 98
      m_TileSpriteIndex: 98
      m_TileMatrixIndex: 0
      m_TileColorIndex: 0
      m_TileObjectToInstantiateIndex: 65535
      dummyAlignment: 0
      m_AllTileFlags: 1073741825
  - first: {x: 19, y: -4, z: 0}
    second:
      serializedVersion: 2
      m_TileIndex: 99
      m_TileSpriteIndex: 99
      m_TileMatrixIndex: 0
      m_TileColorIndex: 0
      m_TileObjectToInstantiateIndex: 65535
      dummyAlignment: 0
      m_AllTileFlags: 1073741825
  - first: {x: 0, y: -3, z: 0}
    second:
      serializedVersion: 2
      m_TileIndex: 60
      m_TileSpriteIndex: 60
      m_TileMatrixIndex: 0
      m_TileColorIndex: 0
      m_TileObjectToInstantiateIndex: 65535
      dummyAlignment: 0
      m_AllTileFlags: 1073741825
  - first: {x: 1, y: -3, z: 0}
    second:
      serializedVersion: 2
      m_TileIndex: 61
      m_TileSpriteIndex: 61
      m_TileMatrixIndex: 0
      m_TileColorIndex: 0
      m_TileObjectToInstantiateIndex: 65535
      dummyAlignment: 0
      m_AllTileFlags: 1073741825
  - first: {x: 2, y: -3, z: 0}
    second:
      serializedVersion: 2
      m_TileIndex: 62
      m_TileSpriteIndex: 62
      m_TileMatrixIndex: 0
      m_TileColorIndex: 0
      m_TileObjectToInstantiateIndex: 65535
      dummyAlignment: 0
      m_AllTileFlags: 1073741825
  - first: {x: 3, y: -3, z: 0}
    second:
      serializedVersion: 2
      m_TileIndex: 63
      m_TileSpriteIndex: 63
      m_TileMatrixIndex: 0
      m_TileColorIndex: 0
      m_TileObjectToInstantiateIndex: 65535
      dummyAlignment: 0
      m_AllTileFlags: 1073741825
  - first: {x: 4, y: -3, z: 0}
    second:
      serializedVersion: 2
      m_TileIndex: 64
      m_TileSpriteIndex: 64
      m_TileMatrixIndex: 0
      m_TileColorIndex: 0
      m_TileObjectToInstantiateIndex: 65535
      dummyAlignment: 0
      m_AllTileFlags: 1073741825
  - first: {x: 5, y: -3, z: 0}
    second:
      serializedVersion: 2
      m_TileIndex: 65
      m_TileSpriteIndex: 65
      m_TileMatrixIndex: 0
      m_TileColorIndex: 0
      m_TileObjectToInstantiateIndex: 65535
      dummyAlignment: 0
      m_AllTileFlags: 1073741825
  - first: {x: 6, y: -3, z: 0}
    second:
      serializedVersion: 2
      m_TileIndex: 66
      m_TileSpriteIndex: 66
      m_TileMatrixIndex: 0
      m_TileColorIndex: 0
      m_TileObjectToInstantiateIndex: 65535
      dummyAlignment: 0
      m_AllTileFlags: 1073741825
  - first: {x: 7, y: -3, z: 0}
    second:
      serializedVersion: 2
      m_TileIndex: 67
      m_TileSpriteIndex: 67
      m_TileMatrixIndex: 0
      m_TileColorIndex: 0
      m_TileObjectToInstantiateIndex: 65535
      dummyAlignment: 0
      m_AllTileFlags: 1073741825
  - first: {x: 8, y: -3, z: 0}
    second:
      serializedVersion: 2
      m_TileIndex: 68
      m_TileSpriteIndex: 68
      m_TileMatrixIndex: 0
      m_TileColorIndex: 0
      m_TileObjectToInstantiateIndex: 65535
      dummyAlignment: 0
      m_AllTileFlags: 1073741825
  - first: {x: 9, y: -3, z: 0}
    second:
      serializedVersion: 2
      m_TileIndex: 69
      m_TileSpriteIndex: 69
      m_TileMatrixIndex: 0
      m_TileColorIndex: 0
      m_TileObjectToInstantiateIndex: 65535
      dummyAlignment: 0
      m_AllTileFlags: 1073741825
  - first: {x: 10, y: -3, z: 0}
    second:
      serializedVersion: 2
      m_TileIndex: 70
      m_TileSpriteIndex: 70
      m_TileMatrixIndex: 0
      m_TileColorIndex: 0
      m_TileObjectToInstantiateIndex: 65535
      dummyAlignment: 0
      m_AllTileFlags: 1073741825
  - first: {x: 11, y: -3, z: 0}
    second:
      serializedVersion: 2
      m_TileIndex: 71
      m_TileSpriteIndex: 71
      m_TileMatrixIndex: 0
      m_TileColorIndex: 0
      m_TileObjectToInstantiateIndex: 65535
      dummyAlignment: 0
      m_AllTileFlags: 1073741825
  - first: {x: 12, y: -3, z: 0}
    second:
      serializedVersion: 2
      m_TileIndex: 72
      m_TileSpriteIndex: 72
      m_TileMatrixIndex: 0
      m_TileColorIndex: 0
      m_TileObjectToInstantiateIndex: 65535
      dummyAlignment: 0
      m_AllTileFlags: 1073741825
  - first: {x: 13, y: -3, z: 0}
    second:
      serializedVersion: 2
      m_TileIndex: 73
      m_TileSpriteIndex: 73
      m_TileMatrixIndex: 0
      m_TileColorIndex: 0
      m_TileObjectToInstantiateIndex: 65535
      dummyAlignment: 0
      m_AllTileFlags: 1073741825
  - first: {x: 14, y: -3, z: 0}
    second:
      serializedVersion: 2
      m_TileIndex: 74
      m_TileSpriteIndex: 74
      m_TileMatrixIndex: 0
      m_TileColorIndex: 0
      m_TileObjectToInstantiateIndex: 65535
      dummyAlignment: 0
      m_AllTileFlags: 1073741825
  - first: {x: 15, y: -3, z: 0}
    second:
      serializedVersion: 2
      m_TileIndex: 75
      m_TileSpriteIndex: 75
      m_TileMatrixIndex: 0
      m_TileColorIndex: 0
      m_TileObjectToInstantiateIndex: 65535
      dummyAlignment: 0
      m_AllTileFlags: 1073741825
  - first: {x: 16, y: -3, z: 0}
    second:
      serializedVersion: 2
      m_TileIndex: 76
      m_TileSpriteIndex: 76
      m_TileMatrixIndex: 0
      m_TileColorIndex: 0
      m_TileObjectToInstantiateIndex: 65535
      dummyAlignment: 0
      m_AllTileFlags: 1073741825
  - first: {x: 17, y: -3, z: 0}
    second:
      serializedVersion: 2
      m_TileIndex: 77
      m_TileSpriteIndex: 77
      m_TileMatrixIndex: 0
      m_TileColorIndex: 0
      m_TileObjectToInstantiateIndex: 65535
      dummyAlignment: 0
      m_AllTileFlags: 1073741825
  - first: {x: 18, y: -3, z: 0}
    second:
      serializedVersion: 2
      m_TileIndex: 78
      m_TileSpriteIndex: 78
      m_TileMatrixIndex: 0
      m_TileColorIndex: 0
      m_TileObjectToInstantiateIndex: 65535
      dummyAlignment: 0
      m_AllTileFlags: 1073741825
  - first: {x: 19, y: -3, z: 0}
    second:
      serializedVersion: 2
      m_TileIndex: 79
      m_TileSpriteIndex: 79
      m_TileMatrixIndex: 0
      m_TileColorIndex: 0
      m_TileObjectToInstantiateIndex: 65535
      dummyAlignment: 0
      m_AllTileFlags: 1073741825
  - first: {x: 0, y: -2, z: 0}
    second:
      serializedVersion: 2
      m_TileIndex: 40
      m_TileSpriteIndex: 40
      m_TileMatrixIndex: 0
      m_TileColorIndex: 0
      m_TileObjectToInstantiateIndex: 65535
      dummyAlignment: 0
      m_AllTileFlags: 1073741825
  - first: {x: 1, y: -2, z: 0}
    second:
      serializedVersion: 2
      m_TileIndex: 41
      m_TileSpriteIndex: 41
      m_TileMatrixIndex: 0
      m_TileColorIndex: 0
      m_TileObjectToInstantiateIndex: 65535
      dummyAlignment: 0
      m_AllTileFlags: 1073741825
  - first: {x: 2, y: -2, z: 0}
    second:
      serializedVersion: 2
      m_TileIndex: 42
      m_TileSpriteIndex: 42
      m_TileMatrixIndex: 0
      m_TileColorIndex: 0
      m_TileObjectToInstantiateIndex: 65535
      dummyAlignment: 0
      m_AllTileFlags: 1073741825
  - first: {x: 3, y: -2, z: 0}
    second:
      serializedVersion: 2
      m_TileIndex: 43
      m_TileSpriteIndex: 43
      m_TileMatrixIndex: 0
      m_TileColorIndex: 0
      m_TileObjectToInstantiateIndex: 65535
      dummyAlignment: 0
      m_AllTileFlags: 1073741825
  - first: {x: 4, y: -2, z: 0}
    second:
      serializedVersion: 2
      m_TileIndex: 44
      m_TileSpriteIndex: 44
      m_TileMatrixIndex: 0
      m_TileColorIndex: 0
      m_TileObjectToInstantiateIndex: 65535
      dummyAlignment: 0
      m_AllTileFlags: 1073741825
  - first: {x: 5, y: -2, z: 0}
    second:
      serializedVersion: 2
      m_TileIndex: 45
      m_TileSpriteIndex: 45
      m_TileMatrixIndex: 0
      m_TileColorIndex: 0
      m_TileObjectToInstantiateIndex: 65535
      dummyAlignment: 0
      m_AllTileFlags: 1073741825
  - first: {x: 6, y: -2, z: 0}
    second:
      serializedVersion: 2
      m_TileIndex: 46
      m_TileSpriteIndex: 46
      m_TileMatrixIndex: 0
      m_TileColorIndex: 0
      m_TileObjectToInstantiateIndex: 65535
      dummyAlignment: 0
      m_AllTileFlags: 1073741825
  - first: {x: 7, y: -2, z: 0}
    second:
      serializedVersion: 2
      m_TileIndex: 47
      m_TileSpriteIndex: 47
      m_TileMatrixIndex: 0
      m_TileColorIndex: 0
      m_TileObjectToInstantiateIndex: 65535
      dummyAlignment: 0
      m_AllTileFlags: 1073741825
  - first: {x: 8, y: -2, z: 0}
    second:
      serializedVersion: 2
      m_TileIndex: 48
      m_TileSpriteIndex: 48
      m_TileMatrixIndex: 0
      m_TileColorIndex: 0
      m_TileObjectToInstantiateIndex: 65535
      dummyAlignment: 0
      m_AllTileFlags: 1073741825
  - first: {x: 9, y: -2, z: 0}
    second:
      serializedVersion: 2
      m_TileIndex: 49
      m_TileSpriteIndex: 49
      m_TileMatrixIndex: 0
      m_TileColorIndex: 0
      m_TileObjectToInstantiateIndex: 65535
      dummyAlignment: 0
      m_AllTileFlags: 1073741825
  - first: {x: 10, y: -2, z: 0}
    second:
      serializedVersion: 2
      m_TileIndex: 50
      m_TileSpriteIndex: 50
      m_TileMatrixIndex: 0
      m_TileColorIndex: 0
      m_TileObjectToInstantiateIndex: 65535
      dummyAlignment: 0
      m_AllTileFlags: 1073741825
  - first: {x: 11, y: -2, z: 0}
    second:
      serializedVersion: 2
      m_TileIndex: 51
      m_TileSpriteIndex: 51
      m_TileMatrixIndex: 0
      m_TileColorIndex: 0
      m_TileObjectToInstantiateIndex: 65535
      dummyAlignment: 0
      m_AllTileFlags: 1073741825
  - first: {x: 12, y: -2, z: 0}
    second:
      serializedVersion: 2
      m_TileIndex: 52
      m_TileSpriteIndex: 52
      m_TileMatrixIndex: 0
      m_TileColorIndex: 0
      m_TileObjectToInstantiateIndex: 65535
      dummyAlignment: 0
      m_AllTileFlags: 1073741825
  - first: {x: 13, y: -2, z: 0}
    second:
      serializedVersion: 2
      m_TileIndex: 53
      m_TileSpriteIndex: 53
      m_TileMatrixIndex: 0
      m_TileColorIndex: 0
      m_TileObjectToInstantiateIndex: 65535
      dummyAlignment: 0
      m_AllTileFlags: 1073741825
  - first: {x: 14, y: -2, z: 0}
    second:
      serializedVersion: 2
      m_TileIndex: 54
      m_TileSpriteIndex: 54
      m_TileMatrixIndex: 0
      m_TileColorIndex: 0
      m_TileObjectToInstantiateIndex: 65535
      dummyAlignment: 0
      m_AllTileFlags: 1073741825
  - first: {x: 15, y: -2, z: 0}
    second:
      serializedVersion: 2
      m_TileIndex: 55
      m_TileSpriteIndex: 55
      m_TileMatrixIndex: 0
      m_TileColorIndex: 0
      m_TileObjectToInstantiateIndex: 65535
      dummyAlignment: 0
      m_AllTileFlags: 1073741825
  - first: {x: 16, y: -2, z: 0}
    second:
      serializedVersion: 2
      m_TileIndex: 56
      m_TileSpriteIndex: 56
      m_TileMatrixIndex: 0
      m_TileColorIndex: 0
      m_TileObjectToInstantiateIndex: 65535
      dummyAlignment: 0
      m_AllTileFlags: 1073741825
  - first: {x: 17, y: -2, z: 0}
    second:
      serializedVersion: 2
      m_TileIndex: 57
      m_TileSpriteIndex: 57
      m_TileMatrixIndex: 0
      m_TileColorIndex: 0
      m_TileObjectToInstantiateIndex: 65535
      dummyAlignment: 0
      m_AllTileFlags: 1073741825
  - first: {x: 18, y: -2, z: 0}
    second:
      serializedVersion: 2
      m_TileIndex: 58
      m_TileSpriteIndex: 58
      m_TileMatrixIndex: 0
      m_TileColorIndex: 0
      m_TileObjectToInstantiateIndex: 65535
      dummyAlignment: 0
      m_AllTileFlags: 1073741825
  - first: {x: 19, y: -2, z: 0}
    second:
      serializedVersion: 2
      m_TileIndex: 59
      m_TileSpriteIndex: 59
      m_TileMatrixIndex: 0
      m_TileColorIndex: 0
      m_TileObjectToInstantiateIndex: 65535
      dummyAlignment: 0
      m_AllTileFlags: 1073741825
  - first: {x: 0, y: -1, z: 0}
    second:
      serializedVersion: 2
      m_TileIndex: 20
      m_TileSpriteIndex: 20
      m_TileMatrixIndex: 0
      m_TileColorIndex: 0
      m_TileObjectToInstantiateIndex: 65535
      dummyAlignment: 0
      m_AllTileFlags: 1073741825
  - first: {x: 1, y: -1, z: 0}
    second:
      serializedVersion: 2
      m_TileIndex: 21
      m_TileSpriteIndex: 21
      m_TileMatrixIndex: 0
      m_TileColorIndex: 0
      m_TileObjectToInstantiateIndex: 65535
      dummyAlignment: 0
      m_AllTileFlags: 1073741825
  - first: {x: 2, y: -1, z: 0}
    second:
      serializedVersion: 2
      m_TileIndex: 22
      m_TileSpriteIndex: 22
      m_TileMatrixIndex: 0
      m_TileColorIndex: 0
      m_TileObjectToInstantiateIndex: 65535
      dummyAlignment: 0
      m_AllTileFlags: 1073741825
  - first: {x: 3, y: -1, z: 0}
    second:
      serializedVersion: 2
      m_TileIndex: 23
      m_TileSpriteIndex: 23
      m_TileMatrixIndex: 0
      m_TileColorIndex: 0
      m_TileObjectToInstantiateIndex: 65535
      dummyAlignment: 0
      m_AllTileFlags: 1073741825
  - first: {x: 4, y: -1, z: 0}
    second:
      serializedVersion: 2
      m_TileIndex: 24
      m_TileSpriteIndex: 24
      m_TileMatrixIndex: 0
      m_TileColorIndex: 0
      m_TileObjectToInstantiateIndex: 65535
      dummyAlignment: 0
      m_AllTileFlags: 1073741825
  - first: {x: 5, y: -1, z: 0}
    second:
      serializedVersion: 2
      m_TileIndex: 25
      m_TileSpriteIndex: 25
      m_TileMatrixIndex: 0
      m_TileColorIndex: 0
      m_TileObjectToInstantiateIndex: 65535
      dummyAlignment: 0
      m_AllTileFlags: 1073741825
  - first: {x: 6, y: -1, z: 0}
    second:
      serializedVersion: 2
      m_TileIndex: 26
      m_TileSpriteIndex: 26
      m_TileMatrixIndex: 0
      m_TileColorIndex: 0
      m_TileObjectToInstantiateIndex: 65535
      dummyAlignment: 0
      m_AllTileFlags: 1073741825
  - first: {x: 7, y: -1, z: 0}
    second:
      serializedVersion: 2
      m_TileIndex: 27
      m_TileSpriteIndex: 27
      m_TileMatrixIndex: 0
      m_TileColorIndex: 0
      m_TileObjectToInstantiateIndex: 65535
      dummyAlignment: 0
      m_AllTileFlags: 1073741825
  - first: {x: 8, y: -1, z: 0}
    second:
      serializedVersion: 2
      m_TileIndex: 28
      m_TileSpriteIndex: 28
      m_TileMatrixIndex: 0
      m_TileColorIndex: 0
      m_TileObjectToInstantiateIndex: 65535
      dummyAlignment: 0
      m_AllTileFlags: 1073741825
  - first: {x: 9, y: -1, z: 0}
    second:
      serializedVersion: 2
      m_TileIndex: 29
      m_TileSpriteIndex: 29
      m_TileMatrixIndex: 0
      m_TileColorIndex: 0
      m_TileObjectToInstantiateIndex: 65535
      dummyAlignment: 0
      m_AllTileFlags: 1073741825
  - first: {x: 10, y: -1, z: 0}
    second:
      serializedVersion: 2
      m_TileIndex: 30
      m_TileSpriteIndex: 30
      m_TileMatrixIndex: 0
      m_TileColorIndex: 0
      m_TileObjectToInstantiateIndex: 65535
      dummyAlignment: 0
      m_AllTileFlags: 1073741825
  - first: {x: 11, y: -1, z: 0}
    second:
      serializedVersion: 2
      m_TileIndex: 31
      m_TileSpriteIndex: 31
      m_TileMatrixIndex: 0
      m_TileColorIndex: 0
      m_TileObjectToInstantiateIndex: 65535
      dummyAlignment: 0
      m_AllTileFlags: 1073741825
  - first: {x: 12, y: -1, z: 0}
    second:
      serializedVersion: 2
      m_TileIndex: 32
      m_TileSpriteIndex: 32
      m_TileMatrixIndex: 0
      m_TileColorIndex: 0
      m_TileObjectToInstantiateIndex: 65535
      dummyAlignment: 0
      m_AllTileFlags: 1073741825
  - first: {x: 13, y: -1, z: 0}
    second:
      serializedVersion: 2
      m_TileIndex: 33
      m_TileSpriteIndex: 33
      m_TileMatrixIndex: 0
      m_TileColorIndex: 0
      m_TileObjectToInstantiateIndex: 65535
      dummyAlignment: 0
      m_AllTileFlags: 1073741825
  - first: {x: 14, y: -1, z: 0}
    second:
      serializedVersion: 2
      m_TileIndex: 34
      m_TileSpriteIndex: 34
      m_TileMatrixIndex: 0
      m_TileColorIndex: 0
      m_TileObjectToInstantiateIndex: 65535
      dummyAlignment: 0
      m_AllTileFlags: 1073741825
  - first: {x: 15, y: -1, z: 0}
    second:
      serializedVersion: 2
      m_TileIndex: 35
      m_TileSpriteIndex: 35
      m_TileMatrixIndex: 0
      m_TileColorIndex: 0
      m_TileObjectToInstantiateIndex: 65535
      dummyAlignment: 0
      m_AllTileFlags: 1073741825
  - first: {x: 16, y: -1, z: 0}
    second:
      serializedVersion: 2
      m_TileIndex: 36
      m_TileSpriteIndex: 36
      m_TileMatrixIndex: 0
      m_TileColorIndex: 0
      m_TileObjectToInstantiateIndex: 65535
      dummyAlignment: 0
      m_AllTileFlags: 1073741825
  - first: {x: 17, y: -1, z: 0}
    second:
      serializedVersion: 2
      m_TileIndex: 37
      m_TileSpriteIndex: 37
      m_TileMatrixIndex: 0
      m_TileColorIndex: 0
      m_TileObjectToInstantiateIndex: 65535
      dummyAlignment: 0
      m_AllTileFlags: 1073741825
  - first: {x: 18, y: -1, z: 0}
    second:
      serializedVersion: 2
      m_TileIndex: 38
      m_TileSpriteIndex: 38
      m_TileMatrixIndex: 0
      m_TileColorIndex: 0
      m_TileObjectToInstantiateIndex: 65535
      dummyAlignment: 0
      m_AllTileFlags: 1073741825
  - first: {x: 19, y: -1, z: 0}
    second:
      serializedVersion: 2
      m_TileIndex: 39
      m_TileSpriteIndex: 39
      m_TileMatrixIndex: 0
      m_TileColorIndex: 0
      m_TileObjectToInstantiateIndex: 65535
      dummyAlignment: 0
      m_AllTileFlags: 1073741825
  - first: {x: 0, y: 0, z: 0}
    second:
      serializedVersion: 2
      m_TileIndex: 0
      m_TileSpriteIndex: 0
      m_TileMatrixIndex: 0
      m_TileColorIndex: 0
      m_TileObjectToInstantiateIndex: 65535
      dummyAlignment: 0
      m_AllTileFlags: 1073741825
  - first: {x: 1, y: 0, z: 0}
    second:
      serializedVersion: 2
      m_TileIndex: 1
      m_TileSpriteIndex: 1
      m_TileMatrixIndex: 0
      m_TileColorIndex: 0
      m_TileObjectToInstantiateIndex: 65535
      dummyAlignment: 0
      m_AllTileFlags: 1073741825
  - first: {x: 2, y: 0, z: 0}
    second:
      serializedVersion: 2
      m_TileIndex: 2
      m_TileSpriteIndex: 2
      m_TileMatrixIndex: 0
      m_TileColorIndex: 0
      m_TileObjectToInstantiateIndex: 65535
      dummyAlignment: 0
      m_AllTileFlags: 1073741825
  - first: {x: 3, y: 0, z: 0}
    second:
      serializedVersion: 2
      m_TileIndex: 3
      m_TileSpriteIndex: 3
      m_TileMatrixIndex: 0
      m_TileColorIndex: 0
      m_TileObjectToInstantiateIndex: 65535
      dummyAlignment: 0
      m_AllTileFlags: 1073741825
  - first: {x: 4, y: 0, z: 0}
    second:
      serializedVersion: 2
      m_TileIndex: 4
      m_TileSpriteIndex: 4
      m_TileMatrixIndex: 0
      m_TileColorIndex: 0
      m_TileObjectToInstantiateIndex: 65535
      dummyAlignment: 0
      m_AllTileFlags: 1073741825
  - first: {x: 5, y: 0, z: 0}
    second:
      serializedVersion: 2
      m_TileIndex: 5
      m_TileSpriteIndex: 5
      m_TileMatrixIndex: 0
      m_TileColorIndex: 0
      m_TileObjectToInstantiateIndex: 65535
      dummyAlignment: 0
      m_AllTileFlags: 1073741825
  - first: {x: 6, y: 0, z: 0}
    second:
      serializedVersion: 2
      m_TileIndex: 6
      m_TileSpriteIndex: 6
      m_TileMatrixIndex: 0
      m_TileColorIndex: 0
      m_TileObjectToInstantiateIndex: 65535
      dummyAlignment: 0
      m_AllTileFlags: 1073741825
  - first: {x: 7, y: 0, z: 0}
    second:
      serializedVersion: 2
      m_TileIndex: 7
      m_TileSpriteIndex: 7
      m_TileMatrixIndex: 0
      m_TileColorIndex: 0
      m_TileObjectToInstantiateIndex: 65535
      dummyAlignment: 0
      m_AllTileFlags: 1073741825
  - first: {x: 8, y: 0, z: 0}
    second:
      serializedVersion: 2
      m_TileIndex: 8
      m_TileSpriteIndex: 8
      m_TileMatrixIndex: 0
      m_TileColorIndex: 0
      m_TileObjectToInstantiateIndex: 65535
      dummyAlignment: 0
      m_AllTileFlags: 1073741825
  - first: {x: 9, y: 0, z: 0}
    second:
      serializedVersion: 2
      m_TileIndex: 9
      m_TileSpriteIndex: 9
      m_TileMatrixIndex: 0
      m_TileColorIndex: 0
      m_TileObjectToInstantiateIndex: 65535
      dummyAlignment: 0
      m_AllTileFlags: 1073741825
  - first: {x: 10, y: 0, z: 0}
    second:
      serializedVersion: 2
      m_TileIndex: 10
      m_TileSpriteIndex: 10
      m_TileMatrixIndex: 0
      m_TileColorIndex: 0
      m_TileObjectToInstantiateIndex: 65535
      dummyAlignment: 0
      m_AllTileFlags: 1073741825
  - first: {x: 11, y: 0, z: 0}
    second:
      serializedVersion: 2
      m_TileIndex: 11
      m_TileSpriteIndex: 11
      m_TileMatrixIndex: 0
      m_TileColorIndex: 0
      m_TileObjectToInstantiateIndex: 65535
      dummyAlignment: 0
      m_AllTileFlags: 1073741825
  - first: {x: 12, y: 0, z: 0}
    second:
      serializedVersion: 2
      m_TileIndex: 12
      m_TileSpriteIndex: 12
      m_TileMatrixIndex: 0
      m_TileColorIndex: 0
      m_TileObjectToInstantiateIndex: 65535
      dummyAlignment: 0
      m_AllTileFlags: 1073741825
  - first: {x: 13, y: 0, z: 0}
    second:
      serializedVersion: 2
      m_TileIndex: 13
      m_TileSpriteIndex: 13
      m_TileMatrixIndex: 0
      m_TileColorIndex: 0
      m_TileObjectToInstantiateIndex: 65535
      dummyAlignment: 0
      m_AllTileFlags: 1073741825
  - first: {x: 14, y: 0, z: 0}
    second:
      serializedVersion: 2
      m_TileIndex: 14
      m_TileSpriteIndex: 14
      m_TileMatrixIndex: 0
      m_TileColorIndex: 0
      m_TileObjectToInstantiateIndex: 65535
      dummyAlignment: 0
      m_AllTileFlags: 1073741825
  - first: {x: 15, y: 0, z: 0}
    second:
      serializedVersion: 2
      m_TileIndex: 15
      m_TileSpriteIndex: 15
      m_TileMatrixIndex: 0
      m_TileColorIndex: 0
      m_TileObjectToInstantiateIndex: 65535
      dummyAlignment: 0
      m_AllTileFlags: 1073741825
  - first: {x: 16, y: 0, z: 0}
    second:
      serializedVersion: 2
      m_TileIndex: 16
      m_TileSpriteIndex: 16
      m_TileMatrixIndex: 0
      m_TileColorIndex: 0
      m_TileObjectToInstantiateIndex: 65535
      dummyAlignment: 0
      m_AllTileFlags: 1073741825
  - first: {x: 17, y: 0, z: 0}
    second:
      serializedVersion: 2
      m_TileIndex: 17
      m_TileSpriteIndex: 17
      m_TileMatrixIndex: 0
      m_TileColorIndex: 0
      m_TileObjectToInstantiateIndex: 65535
      dummyAlignment: 0
      m_AllTileFlags: 1073741825
  - first: {x: 18, y: 0, z: 0}
    second:
      serializedVersion: 2
      m_TileIndex: 18
      m_TileSpriteIndex: 18
      m_TileMatrixIndex: 0
      m_TileColorIndex: 0
      m_TileObjectToInstantiateIndex: 65535
      dummyAlignment: 0
      m_AllTileFlags: 1073741825
  - first: {x: 19, y: 0, z: 0}
    second:
      serializedVersion: 2
      m_TileIndex: 19
      m_TileSpriteIndex: 19
      m_TileMatrixIndex: 0
      m_TileColorIndex: 0
      m_TileObjectToInstantiateIndex: 65535
      dummyAlignment: 0
      m_AllTileFlags: 1073741825
  m_AnimatedTiles: {}
  m_TileAssetArray:
  - m_RefCount: 1
    m_Data: {fileID: 11400000, guid: 7d0b2420178e69047b80832614f3c4fb, type: 2}
  - m_RefCount: 1
    m_Data: {fileID: 11400000, guid: af013df864266c04fbcbd480881e370c, type: 2}
  - m_RefCount: 1
    m_Data: {fileID: 11400000, guid: e11d8da7c46e6bc4c9bfb0fedcdb2e20, type: 2}
  - m_RefCount: 1
    m_Data: {fileID: 11400000, guid: 9e4e6828003d0724db8a204eb5e5cf8a, type: 2}
  - m_RefCount: 1
    m_Data: {fileID: 11400000, guid: 2c43a2745b4c44941a3e9aed452f81ca, type: 2}
  - m_RefCount: 1
    m_Data: {fileID: 11400000, guid: 0db8ce33d1b4fca46ba29dde26f9719f, type: 2}
  - m_RefCount: 1
    m_Data: {fileID: 11400000, guid: f1817d690bac8964097d50c1f8847eeb, type: 2}
  - m_RefCount: 1
    m_Data: {fileID: 11400000, guid: 197d3a24d0af1094e8a60da3f99b7c6d, type: 2}
  - m_RefCount: 1
    m_Data: {fileID: 11400000, guid: 15e929bb93b51cb46a8c9c0ef0308d01, type: 2}
  - m_RefCount: 1
    m_Data: {fileID: 11400000, guid: fd3dc958ee56d6141a2d658c47c1399a, type: 2}
  - m_RefCount: 1
    m_Data: {fileID: 11400000, guid: 000e8f97c422fee448b3c58a47a62e82, type: 2}
  - m_RefCount: 1
    m_Data: {fileID: 11400000, guid: bd69c4806c791c446980fff62a932af9, type: 2}
  - m_RefCount: 1
    m_Data: {fileID: 11400000, guid: 32a15b722b7f49143b47e15f225ba281, type: 2}
  - m_RefCount: 1
    m_Data: {fileID: 11400000, guid: 0e13817b498f1774db09fee74325ff4f, type: 2}
  - m_RefCount: 1
    m_Data: {fileID: 11400000, guid: ed06ca42e94f064428cb29f1b38f9f7d, type: 2}
  - m_RefCount: 1
    m_Data: {fileID: 11400000, guid: b1bc4417036c5a2488c7dc9273fc9b71, type: 2}
  - m_RefCount: 1
    m_Data: {fileID: 11400000, guid: fccb3e035490e564e94f2c8346811b64, type: 2}
  - m_RefCount: 1
    m_Data: {fileID: 11400000, guid: 2ac6fbade0cd0b74da496cf98d41b272, type: 2}
  - m_RefCount: 1
    m_Data: {fileID: 11400000, guid: 07e8f8997c9ced9469fa680566c1c9a5, type: 2}
  - m_RefCount: 1
    m_Data: {fileID: 11400000, guid: f6920555fd4a8024e83765b6ad87484b, type: 2}
  - m_RefCount: 1
    m_Data: {fileID: 11400000, guid: 6115322e7e598754e9ba073fee81e96f, type: 2}
  - m_RefCount: 1
    m_Data: {fileID: 11400000, guid: 681fa3dfddd379246a22ef13ca10d3c7, type: 2}
  - m_RefCount: 1
    m_Data: {fileID: 11400000, guid: dea26ced248a26847b9f427a2190d930, type: 2}
  - m_RefCount: 1
    m_Data: {fileID: 11400000, guid: e328a3225071333408a057425a2086cf, type: 2}
  - m_RefCount: 1
    m_Data: {fileID: 11400000, guid: 7038c2462295c334b83fe2b24261c83b, type: 2}
  - m_RefCount: 1
    m_Data: {fileID: 11400000, guid: 380f70023a6a8d24e95b61148c6fcc39, type: 2}
  - m_RefCount: 1
    m_Data: {fileID: 11400000, guid: 0854aaa7192cd6344a1f3110c702323c, type: 2}
  - m_RefCount: 1
    m_Data: {fileID: 11400000, guid: b64299192838f05498b75961bc204c68, type: 2}
  - m_RefCount: 1
    m_Data: {fileID: 11400000, guid: c347e86082e6f7a4999541b28e5159d0, type: 2}
  - m_RefCount: 1
    m_Data: {fileID: 11400000, guid: 19568096ae6706e4380f23650d6e9cf8, type: 2}
  - m_RefCount: 1
    m_Data: {fileID: 11400000, guid: d5100fbe25678b94f85749b914090606, type: 2}
  - m_RefCount: 1
    m_Data: {fileID: 11400000, guid: 0ab81d3c0ddf2604391f2c2d44d5ec14, type: 2}
  - m_RefCount: 1
    m_Data: {fileID: 11400000, guid: 2214bb056f5a38446a8bfcb0ffeeb14f, type: 2}
  - m_RefCount: 1
    m_Data: {fileID: 11400000, guid: 9f65b051f4c9a67458df1613686b131b, type: 2}
  - m_RefCount: 1
    m_Data: {fileID: 11400000, guid: a87619cff22b6cb46a13944919c1bcbe, type: 2}
  - m_RefCount: 1
    m_Data: {fileID: 11400000, guid: 0677be2945acb9942931baed000e9bda, type: 2}
  - m_RefCount: 1
    m_Data: {fileID: 11400000, guid: a2970814c9fdd124782fc21206d0db9c, type: 2}
  - m_RefCount: 1
    m_Data: {fileID: 11400000, guid: b79e93e9007c6a44d97d0b5b5820bf92, type: 2}
  - m_RefCount: 1
    m_Data: {fileID: 11400000, guid: 707a2d3a61efdfe498678fa07b895ea7, type: 2}
  - m_RefCount: 1
    m_Data: {fileID: 11400000, guid: 98303f74ae6443641b42dcbce9302d5b, type: 2}
  - m_RefCount: 1
    m_Data: {fileID: 11400000, guid: 369e6c89a076ada48b87004882ef5bae, type: 2}
  - m_RefCount: 1
    m_Data: {fileID: 11400000, guid: c14382551a1917646bf0527d95d8cf77, type: 2}
  - m_RefCount: 1
    m_Data: {fileID: 11400000, guid: d23fd315af32adf4aa8434a70ba84e89, type: 2}
  - m_RefCount: 1
    m_Data: {fileID: 11400000, guid: 7b40c1ff19a71d9499e2f3555d9e81aa, type: 2}
  - m_RefCount: 1
    m_Data: {fileID: 11400000, guid: c472fdc661fbc8040b72ef59d871cd17, type: 2}
  - m_RefCount: 1
    m_Data: {fileID: 11400000, guid: dd24b42c67724134b804b86d274cfb1a, type: 2}
  - m_RefCount: 1
    m_Data: {fileID: 11400000, guid: c9a4b2616fcddbd4cb087de247def1ea, type: 2}
  - m_RefCount: 1
    m_Data: {fileID: 11400000, guid: 7aa692344cfca6e4b9e8af4f1f40c57b, type: 2}
  - m_RefCount: 1
    m_Data: {fileID: 11400000, guid: 2f730e1abc3d27145817b896321c40b7, type: 2}
  - m_RefCount: 1
    m_Data: {fileID: 11400000, guid: 86521a1124a969248a54446f4b077a7a, type: 2}
  - m_RefCount: 1
    m_Data: {fileID: 11400000, guid: c13dab8f87d887742999aac11e19f9b4, type: 2}
  - m_RefCount: 1
    m_Data: {fileID: 11400000, guid: 09e4963d84b72334c97bf0ee840e09a9, type: 2}
  - m_RefCount: 1
    m_Data: {fileID: 11400000, guid: 6775be6d68bdc48489ecdacb0d398fda, type: 2}
  - m_RefCount: 1
    m_Data: {fileID: 11400000, guid: b38e1f89a6c281a44b8bcd4b26f462d9, type: 2}
  - m_RefCount: 1
    m_Data: {fileID: 11400000, guid: e90bf970eba406748a4aa3a6d8009eac, type: 2}
  - m_RefCount: 1
    m_Data: {fileID: 11400000, guid: a73537497ef826d459edb29e806e02ac, type: 2}
  - m_RefCount: 1
    m_Data: {fileID: 11400000, guid: 274d73f1eb50a2248b699d6bb3800187, type: 2}
  - m_RefCount: 1
    m_Data: {fileID: 11400000, guid: 34606ac02bf2ea245a7a0a022980008d, type: 2}
  - m_RefCount: 1
    m_Data: {fileID: 11400000, guid: 21e3dc8a0b9fd0a49b603f2ced22e9c5, type: 2}
  - m_RefCount: 1
    m_Data: {fileID: 11400000, guid: 0516014d74dc7ea4d9fd540ec18adfb3, type: 2}
  - m_RefCount: 1
    m_Data: {fileID: 11400000, guid: 12d87cc68f7ab3c49b245f36893b5cd6, type: 2}
  - m_RefCount: 1
    m_Data: {fileID: 11400000, guid: 4da1c5f385ba932468a9efd83eab7a4e, type: 2}
  - m_RefCount: 1
    m_Data: {fileID: 11400000, guid: 64b529ab93ca2a040b79c6a975e5b9e3, type: 2}
  - m_RefCount: 1
    m_Data: {fileID: 11400000, guid: db2b6d5bae9c8d1479313f9507b73a4b, type: 2}
  - m_RefCount: 1
    m_Data: {fileID: 11400000, guid: 5d16564f4233b87408bddad756693740, type: 2}
  - m_RefCount: 1
    m_Data: {fileID: 11400000, guid: 9a6a20fdbce363c4698969852e1ec798, type: 2}
  - m_RefCount: 1
    m_Data: {fileID: 11400000, guid: 9484cfa01dd210b43b93f0096ee86dd9, type: 2}
  - m_RefCount: 1
    m_Data: {fileID: 11400000, guid: e7ae8abf797cc854a95c5e480cd2ae4f, type: 2}
  - m_RefCount: 1
    m_Data: {fileID: 11400000, guid: 815efa9a63f19ed42ac6a1082cf9406e, type: 2}
  - m_RefCount: 1
    m_Data: {fileID: 11400000, guid: 68a4f593bb9c1a3478444c6c4cf69374, type: 2}
  - m_RefCount: 1
    m_Data: {fileID: 11400000, guid: 5bed3d4ceb582e14f85a3cbf43312221, type: 2}
  - m_RefCount: 1
    m_Data: {fileID: 11400000, guid: f023483bb4de3e04a950c7ee716b9962, type: 2}
  - m_RefCount: 1
    m_Data: {fileID: 11400000, guid: 2742b8e644ae0f14ca4c5897667c7543, type: 2}
  - m_RefCount: 1
    m_Data: {fileID: 11400000, guid: ca84f221966103a45af9a201e6742594, type: 2}
  - m_RefCount: 1
    m_Data: {fileID: 11400000, guid: 8cf045421f8151d4bbd0ab5b3a968494, type: 2}
  - m_RefCount: 1
    m_Data: {fileID: 11400000, guid: be8d7c685eabcc44b8a1a20710e191fe, type: 2}
  - m_RefCount: 1
    m_Data: {fileID: 11400000, guid: 6a7c5ada01443a1448bd2a459f3bbd29, type: 2}
  - m_RefCount: 1
    m_Data: {fileID: 11400000, guid: ec4dc9935c39b98429a20e4b38eb3ab5, type: 2}
  - m_RefCount: 1
    m_Data: {fileID: 11400000, guid: 85a4fa1fcb26fc040a1de7aa935f3e4d, type: 2}
  - m_RefCount: 1
    m_Data: {fileID: 11400000, guid: fdbe3212f9272c442aa7e182bc7da9b1, type: 2}
  - m_RefCount: 1
    m_Data: {fileID: 11400000, guid: 11177d1fca9fc484dbaf2183e8e709a9, type: 2}
  - m_RefCount: 1
    m_Data: {fileID: 11400000, guid: 184aeb4205984e44cb64bee4937e0dcb, type: 2}
  - m_RefCount: 1
    m_Data: {fileID: 11400000, guid: 372687de9bab6a246bc533ade640667d, type: 2}
  - m_RefCount: 1
    m_Data: {fileID: 11400000, guid: de7cb67e5cde07b4fab4b93edc656ea4, type: 2}
  - m_RefCount: 1
    m_Data: {fileID: 11400000, guid: 57ddf87ec4316dc4abcf49e297f60bbc, type: 2}
  - m_RefCount: 1
    m_Data: {fileID: 11400000, guid: e80b4e811ec021041a2115100028994e, type: 2}
  - m_RefCount: 1
    m_Data: {fileID: 11400000, guid: 75b7cf95cce32f34f86f4f33924a56db, type: 2}
  - m_RefCount: 1
    m_Data: {fileID: 11400000, guid: dafb1e3038ad75e4a925861a353c76e8, type: 2}
  - m_RefCount: 1
    m_Data: {fileID: 11400000, guid: dcf23af7bd7803840a0a09f05b8628d1, type: 2}
  - m_RefCount: 1
    m_Data: {fileID: 11400000, guid: 5da8472df9d2d9440b2a2915f89598cd, type: 2}
  - m_RefCount: 1
    m_Data: {fileID: 11400000, guid: 1f7216b6fc5567543beed0ea9b750c59, type: 2}
  - m_RefCount: 1
    m_Data: {fileID: 11400000, guid: 708e8dc15ea05904899578f85e8a81ec, type: 2}
  - m_RefCount: 1
    m_Data: {fileID: 11400000, guid: 5b05eba59b83c7d4fb88462239df249a, type: 2}
  - m_RefCount: 1
    m_Data: {fileID: 11400000, guid: a0833647561617348a4efa39ff66b350, type: 2}
  - m_RefCount: 1
    m_Data: {fileID: 11400000, guid: 31799152905bf6a40bf7324497683d10, type: 2}
  - m_RefCount: 1
    m_Data: {fileID: 11400000, guid: 48727b825b4c1714cba3413c80880c11, type: 2}
  - m_RefCount: 1
    m_Data: {fileID: 11400000, guid: 7fb465f63f499cb4a8ade75189318730, type: 2}
  - m_RefCount: 1
    m_Data: {fileID: 11400000, guid: f6748fd79ac0837498637fad0bcbb251, type: 2}
  - m_RefCount: 1
    m_Data: {fileID: 11400000, guid: 70b502486215a034f9c8c8e1ed9cbf4c, type: 2}
  - m_RefCount: 1
    m_Data: {fileID: 11400000, guid: dde4ab4cdadc2934984ece0b61aff23f, type: 2}
  - m_RefCount: 1
    m_Data: {fileID: 11400000, guid: ddba86445add29745a06f76b9606ccc6, type: 2}
  - m_RefCount: 1
    m_Data: {fileID: 11400000, guid: 4ece00a4e7201cc4cae1acf42961f9f6, type: 2}
  - m_RefCount: 1
    m_Data: {fileID: 11400000, guid: b4dbcc91b0457894f83815c06ae4655b, type: 2}
  - m_RefCount: 1
    m_Data: {fileID: 11400000, guid: 158a755a5015d6f44a2508865319eed4, type: 2}
  - m_RefCount: 1
    m_Data: {fileID: 11400000, guid: a8bf2aa75ec83524282d73dd3475a04a, type: 2}
  - m_RefCount: 1
    m_Data: {fileID: 11400000, guid: c030069d7e581ab4d8577fa6f68ec8ff, type: 2}
  - m_RefCount: 1
    m_Data: {fileID: 11400000, guid: f0282349be1e67247b8f05938692d7de, type: 2}
  - m_RefCount: 1
    m_Data: {fileID: 11400000, guid: 649c133b87151fe4299e471c88ed6ae5, type: 2}
  - m_RefCount: 1
    m_Data: {fileID: 11400000, guid: f1cf0b01e1d768e48a0248dc96688a82, type: 2}
  - m_RefCount: 1
    m_Data: {fileID: 11400000, guid: 77d90dc37c9ab4b47988755957b2bbcb, type: 2}
  - m_RefCount: 1
    m_Data: {fileID: 11400000, guid: 59fba2f98ea8e5645979f45b80334469, type: 2}
  - m_RefCount: 1
    m_Data: {fileID: 11400000, guid: 309139983aaddae4b86ad7c8af81cc6d, type: 2}
  - m_RefCount: 1
    m_Data: {fileID: 11400000, guid: d7ac22906a518dd4eb5fff5a3946ba4d, type: 2}
  - m_RefCount: 1
    m_Data: {fileID: 11400000, guid: 7827103a8d1f75f4cb8f083ed9d77a97, type: 2}
  - m_RefCount: 1
    m_Data: {fileID: 11400000, guid: 2305ba06dc1524b4ca081de10497bd44, type: 2}
  - m_RefCount: 1
    m_Data: {fileID: 11400000, guid: 0c5dafb51733476458256993615ab815, type: 2}
  - m_RefCount: 1
    m_Data: {fileID: 11400000, guid: 085c3e87b545c8a40809cc40a5d57b1a, type: 2}
  - m_RefCount: 1
    m_Data: {fileID: 11400000, guid: da4f743aaffb8f64d906ba600f67ff30, type: 2}
  - m_RefCount: 1
    m_Data: {fileID: 11400000, guid: 5bcba86ecfdd63a49aeb90556c20d102, type: 2}
  - m_RefCount: 1
    m_Data: {fileID: 11400000, guid: 2eb55b3842a44d34c8921b4d5fe826f3, type: 2}
  - m_RefCount: 1
    m_Data: {fileID: 11400000, guid: 3c1ec41ce7086b4478890b0bcd3e2ab2, type: 2}
  - m_RefCount: 1
    m_Data: {fileID: 11400000, guid: 4e0cecf940633b942982bc90ba25b1c1, type: 2}
  - m_RefCount: 1
    m_Data: {fileID: 11400000, guid: 77d06496a6c329c4bbf28200b417cff2, type: 2}
  - m_RefCount: 1
    m_Data: {fileID: 11400000, guid: 3786613baf577b440836717a6a45de9b, type: 2}
  - m_RefCount: 1
    m_Data: {fileID: 11400000, guid: a4f65e11f4852074380d79ef3f1f6951, type: 2}
  - m_RefCount: 1
    m_Data: {fileID: 11400000, guid: 935937f25773174418e6908ae88e095e, type: 2}
  - m_RefCount: 1
    m_Data: {fileID: 11400000, guid: 1fb061bda342b604783efe1657515da5, type: 2}
  - m_RefCount: 1
    m_Data: {fileID: 11400000, guid: dbb874b66f4530840afef983de2b76f9, type: 2}
  - m_RefCount: 1
    m_Data: {fileID: 11400000, guid: 158d2d0a2b071e74fb7cfdc9cfb9917d, type: 2}
  - m_RefCount: 1
    m_Data: {fileID: 11400000, guid: f9bf159fa97a9874fb07f1f838cf9758, type: 2}
  - m_RefCount: 1
    m_Data: {fileID: 11400000, guid: 100e9ee8a0be6e245ac6765214c340bb, type: 2}
  - m_RefCount: 1
    m_Data: {fileID: 11400000, guid: 03c8b854bf124e74882fe0a5634609b7, type: 2}
  - m_RefCount: 1
    m_Data: {fileID: 11400000, guid: 5e984aa3c987f6c47bd24e944405e509, type: 2}
  - m_RefCount: 1
    m_Data: {fileID: 11400000, guid: 6729ad137c344ce4aa489805a3571f18, type: 2}
  - m_RefCount: 1
    m_Data: {fileID: 11400000, guid: a3f4d2ee26531f34f81fa37be882bce0, type: 2}
  - m_RefCount: 1
    m_Data: {fileID: 11400000, guid: 841cb6cfd12d3b648a5eaab4b4977fd4, type: 2}
  - m_RefCount: 1
    m_Data: {fileID: 11400000, guid: 2639ef79bcf25814e84e3b4fb173794c, type: 2}
  - m_RefCount: 1
    m_Data: {fileID: 11400000, guid: c2507e81da978f741abfe17d7beaf7f6, type: 2}
  - m_RefCount: 1
    m_Data: {fileID: 11400000, guid: 77b61cc4d1ee0b44498efb3d657e1ade, type: 2}
  - m_RefCount: 1
    m_Data: {fileID: 11400000, guid: 63988f62ad918ae488914c170f482ef5, type: 2}
  - m_RefCount: 1
    m_Data: {fileID: 11400000, guid: 916ea715317738a4b9e78f3926c24b63, type: 2}
  - m_RefCount: 1
    m_Data: {fileID: 11400000, guid: 2bf940b1feb860a45aa75e4493148cc7, type: 2}
  - m_RefCount: 1
    m_Data: {fileID: 11400000, guid: 9dc55ba7f09b99b4da49b7a52b7b3632, type: 2}
  - m_RefCount: 1
    m_Data: {fileID: 11400000, guid: ba2f6f9a590547f419654362093f682e, type: 2}
  - m_RefCount: 1
    m_Data: {fileID: 11400000, guid: b7a35c79f09ff5645ad1ed9b755f937b, type: 2}
  - m_RefCount: 1
    m_Data: {fileID: 11400000, guid: dd4012892786cb64da6176626d53c3b0, type: 2}
  - m_RefCount: 1
    m_Data: {fileID: 11400000, guid: e89a9e05ae76af647bee1a0244f1c0f5, type: 2}
  - m_RefCount: 1
    m_Data: {fileID: 11400000, guid: 29a8d089ab74b8840ae497c24c62e170, type: 2}
  - m_RefCount: 1
    m_Data: {fileID: 11400000, guid: 38cbee9630d08d342899645b1e53e2e0, type: 2}
  - m_RefCount: 1
    m_Data: {fileID: 11400000, guid: 297ec1b51a45d8e4aa5a0313e60d8b9b, type: 2}
  - m_RefCount: 1
    m_Data: {fileID: 11400000, guid: 77f73341eaa2d62428352895141ecbe6, type: 2}
  - m_RefCount: 1
    m_Data: {fileID: 11400000, guid: 9e5ac3e6879d1be408d5cdb00ec03fc8, type: 2}
  - m_RefCount: 1
    m_Data: {fileID: 11400000, guid: 0a1f6ffb2d485bd44a21acd2f998a6bf, type: 2}
  - m_RefCount: 1
    m_Data: {fileID: 11400000, guid: 8ec1516c41d47d543983dcf76d11f1fd, type: 2}
  - m_RefCount: 1
    m_Data: {fileID: 11400000, guid: 102160307ec8db34ca0f1372d19c5359, type: 2}
  - m_RefCount: 1
    m_Data: {fileID: 11400000, guid: c780e6d618707c74ca80494a23938ea9, type: 2}
  - m_RefCount: 1
    m_Data: {fileID: 11400000, guid: 10db9ac69b87f9f45b9ad0a9d5b2565c, type: 2}
  - m_RefCount: 1
    m_Data: {fileID: 11400000, guid: 007d091a8d0a3cb498d2e141d0a31ef1, type: 2}
  - m_RefCount: 1
    m_Data: {fileID: 11400000, guid: 4f40197d45ea6094d82dfaf5c2d02def, type: 2}
  - m_RefCount: 1
    m_Data: {fileID: 11400000, guid: ba88c1e6bb8a1a045ba120f88c3fd879, type: 2}
  - m_RefCount: 1
    m_Data: {fileID: 11400000, guid: 13db5ca4ceb13b246a3655a978762f00, type: 2}
  - m_RefCount: 1
    m_Data: {fileID: 11400000, guid: f349e9a6308560a4f8b8a230532c9af6, type: 2}
  - m_RefCount: 1
    m_Data: {fileID: 11400000, guid: e357e8ba95033a748add83c1066be9cc, type: 2}
  - m_RefCount: 1
    m_Data: {fileID: 11400000, guid: 538d5a4b08af6e84fae2ecc611a5c689, type: 2}
  - m_RefCount: 1
    m_Data: {fileID: 11400000, guid: c245bf7e6b76c894794daa4ada9475f8, type: 2}
  - m_RefCount: 1
    m_Data: {fileID: 11400000, guid: f2ef0c756a41e9640a29fbda0e3f177c, type: 2}
  - m_RefCount: 1
    m_Data: {fileID: 11400000, guid: 1c8c86fab32395343b3e978782319981, type: 2}
  - m_RefCount: 1
    m_Data: {fileID: 11400000, guid: c3d1e3fe008bc86488f9ab4087f31919, type: 2}
  - m_RefCount: 1
    m_Data: {fileID: 11400000, guid: c1fc67f75853d584baade7e96c07c068, type: 2}
  - m_RefCount: 1
    m_Data: {fileID: 11400000, guid: 125990ec4a131934ea2f5678f7c38b12, type: 2}
  - m_RefCount: 1
    m_Data: {fileID: 11400000, guid: 3637836e5b269944694aa8c5203ccad4, type: 2}
  - m_RefCount: 1
    m_Data: {fileID: 11400000, guid: b48b09e7ef343f74ea63a153535d8604, type: 2}
  - m_RefCount: 1
    m_Data: {fileID: 11400000, guid: bc50ff7cb243549458a99868f2abd2df, type: 2}
  - m_RefCount: 1
    m_Data: {fileID: 11400000, guid: 3a1cda6ac4ee6794980cf600bc1c5b83, type: 2}
  - m_RefCount: 1
    m_Data: {fileID: 11400000, guid: 0b73716d6b3450e4280550d5c258d601, type: 2}
  - m_RefCount: 1
    m_Data: {fileID: 11400000, guid: 01d4cf5cd985523479377a696c5f5fae, type: 2}
  - m_RefCount: 1
    m_Data: {fileID: 11400000, guid: 311a662a726b2e24b9165cf753fe3258, type: 2}
  - m_RefCount: 1
    m_Data: {fileID: 11400000, guid: b2e6279cc4417c84e9bf8b89127718c6, type: 2}
  - m_RefCount: 1
    m_Data: {fileID: 11400000, guid: aa9fc6f875e1625469dfc6aa5f8b11fe, type: 2}
  - m_RefCount: 1
    m_Data: {fileID: 11400000, guid: 94ce15f8f763dfb42930f46feb0e1f81, type: 2}
  m_TileSpriteArray:
  - m_RefCount: 1
    m_Data: {fileID: -1760349913, guid: c753b6f73ffe0ed4caa61c853bd3fd6a, type: 3}
  - m_RefCount: 1
    m_Data: {fileID: 588145766, guid: c753b6f73ffe0ed4caa61c853bd3fd6a, type: 3}
  - m_RefCount: 1
    m_Data: {fileID: -1986395727, guid: c753b6f73ffe0ed4caa61c853bd3fd6a, type: 3}
  - m_RefCount: 1
    m_Data: {fileID: 429421481, guid: c753b6f73ffe0ed4caa61c853bd3fd6a, type: 3}
  - m_RefCount: 1
    m_Data: {fileID: -1076532978, guid: c753b6f73ffe0ed4caa61c853bd3fd6a, type: 3}
  - m_RefCount: 1
    m_Data: {fileID: -1861830775, guid: c753b6f73ffe0ed4caa61c853bd3fd6a, type: 3}
  - m_RefCount: 1
    m_Data: {fileID: -1739154459, guid: c753b6f73ffe0ed4caa61c853bd3fd6a, type: 3}
  - m_RefCount: 1
    m_Data: {fileID: 755008055, guid: c753b6f73ffe0ed4caa61c853bd3fd6a, type: 3}
  - m_RefCount: 1
    m_Data: {fileID: 2022249223, guid: c753b6f73ffe0ed4caa61c853bd3fd6a, type: 3}
  - m_RefCount: 1
    m_Data: {fileID: 1073619865, guid: c753b6f73ffe0ed4caa61c853bd3fd6a, type: 3}
  - m_RefCount: 1
    m_Data: {fileID: 66560993, guid: c753b6f73ffe0ed4caa61c853bd3fd6a, type: 3}
  - m_RefCount: 1
    m_Data: {fileID: 1269893247, guid: c753b6f73ffe0ed4caa61c853bd3fd6a, type: 3}
  - m_RefCount: 1
    m_Data: {fileID: 1442610792, guid: c753b6f73ffe0ed4caa61c853bd3fd6a, type: 3}
  - m_RefCount: 1
    m_Data: {fileID: -2093172103, guid: c753b6f73ffe0ed4caa61c853bd3fd6a, type: 3}
  - m_RefCount: 1
    m_Data: {fileID: 1222583626, guid: c753b6f73ffe0ed4caa61c853bd3fd6a, type: 3}
  - m_RefCount: 1
    m_Data: {fileID: -1601341761, guid: c753b6f73ffe0ed4caa61c853bd3fd6a, type: 3}
  - m_RefCount: 1
    m_Data: {fileID: -438080085, guid: c753b6f73ffe0ed4caa61c853bd3fd6a, type: 3}
  - m_RefCount: 1
    m_Data: {fileID: 895859456, guid: c753b6f73ffe0ed4caa61c853bd3fd6a, type: 3}
  - m_RefCount: 1
    m_Data: {fileID: -1385166208, guid: c753b6f73ffe0ed4caa61c853bd3fd6a, type: 3}
  - m_RefCount: 1
    m_Data: {fileID: -687358125, guid: c753b6f73ffe0ed4caa61c853bd3fd6a, type: 3}
  - m_RefCount: 1
    m_Data: {fileID: -136976472, guid: c753b6f73ffe0ed4caa61c853bd3fd6a, type: 3}
  - m_RefCount: 1
    m_Data: {fileID: 728222222, guid: c753b6f73ffe0ed4caa61c853bd3fd6a, type: 3}
  - m_RefCount: 1
    m_Data: {fileID: 1060544467, guid: c753b6f73ffe0ed4caa61c853bd3fd6a, type: 3}
  - m_RefCount: 1
    m_Data: {fileID: -1949116753, guid: c753b6f73ffe0ed4caa61c853bd3fd6a, type: 3}
  - m_RefCount: 1
    m_Data: {fileID: 139197313, guid: c753b6f73ffe0ed4caa61c853bd3fd6a, type: 3}
  - m_RefCount: 1
    m_Data: {fileID: 1619980115, guid: c753b6f73ffe0ed4caa61c853bd3fd6a, type: 3}
  - m_RefCount: 1
    m_Data: {fileID: 500533523, guid: c753b6f73ffe0ed4caa61c853bd3fd6a, type: 3}
  - m_RefCount: 1
    m_Data: {fileID: 1104027062, guid: c753b6f73ffe0ed4caa61c853bd3fd6a, type: 3}
  - m_RefCount: 1
    m_Data: {fileID: -1288368305, guid: c753b6f73ffe0ed4caa61c853bd3fd6a, type: 3}
  - m_RefCount: 1
    m_Data: {fileID: -662105028, guid: c753b6f73ffe0ed4caa61c853bd3fd6a, type: 3}
  - m_RefCount: 1
    m_Data: {fileID: 1447205719, guid: c753b6f73ffe0ed4caa61c853bd3fd6a, type: 3}
  - m_RefCount: 1
    m_Data: {fileID: -847569279, guid: c753b6f73ffe0ed4caa61c853bd3fd6a, type: 3}
  - m_RefCount: 1
    m_Data: {fileID: -2093555896, guid: c753b6f73ffe0ed4caa61c853bd3fd6a, type: 3}
  - m_RefCount: 1
    m_Data: {fileID: 620743611, guid: c753b6f73ffe0ed4caa61c853bd3fd6a, type: 3}
  - m_RefCount: 1
    m_Data: {fileID: 502076308, guid: c753b6f73ffe0ed4caa61c853bd3fd6a, type: 3}
  - m_RefCount: 1
    m_Data: {fileID: 201553759, guid: c753b6f73ffe0ed4caa61c853bd3fd6a, type: 3}
  - m_RefCount: 1
    m_Data: {fileID: 113423783, guid: c753b6f73ffe0ed4caa61c853bd3fd6a, type: 3}
  - m_RefCount: 1
    m_Data: {fileID: 1842316297, guid: c753b6f73ffe0ed4caa61c853bd3fd6a, type: 3}
  - m_RefCount: 1
    m_Data: {fileID: 889283421, guid: c753b6f73ffe0ed4caa61c853bd3fd6a, type: 3}
  - m_RefCount: 1
    m_Data: {fileID: -1562180862, guid: c753b6f73ffe0ed4caa61c853bd3fd6a, type: 3}
  - m_RefCount: 1
    m_Data: {fileID: 10333517, guid: c753b6f73ffe0ed4caa61c853bd3fd6a, type: 3}
  - m_RefCount: 1
    m_Data: {fileID: 837095109, guid: c753b6f73ffe0ed4caa61c853bd3fd6a, type: 3}
  - m_RefCount: 1
    m_Data: {fileID: 469503850, guid: c753b6f73ffe0ed4caa61c853bd3fd6a, type: 3}
  - m_RefCount: 1
    m_Data: {fileID: 23292472, guid: c753b6f73ffe0ed4caa61c853bd3fd6a, type: 3}
  - m_RefCount: 1
    m_Data: {fileID: -299768700, guid: c753b6f73ffe0ed4caa61c853bd3fd6a, type: 3}
  - m_RefCount: 1
    m_Data: {fileID: 36309740, guid: c753b6f73ffe0ed4caa61c853bd3fd6a, type: 3}
  - m_RefCount: 1
    m_Data: {fileID: 226769958, guid: c753b6f73ffe0ed4caa61c853bd3fd6a, type: 3}
  - m_RefCount: 1
    m_Data: {fileID: 1684109505, guid: c753b6f73ffe0ed4caa61c853bd3fd6a, type: 3}
  - m_RefCount: 1
    m_Data: {fileID: 1191979118, guid: c753b6f73ffe0ed4caa61c853bd3fd6a, type: 3}
  - m_RefCount: 1
    m_Data: {fileID: -1925022476, guid: c753b6f73ffe0ed4caa61c853bd3fd6a, type: 3}
  - m_RefCount: 1
    m_Data: {fileID: 280651007, guid: c753b6f73ffe0ed4caa61c853bd3fd6a, type: 3}
  - m_RefCount: 1
    m_Data: {fileID: -246674586, guid: c753b6f73ffe0ed4caa61c853bd3fd6a, type: 3}
  - m_RefCount: 1
    m_Data: {fileID: -607417935, guid: c753b6f73ffe0ed4caa61c853bd3fd6a, type: 3}
  - m_RefCount: 1
    m_Data: {fileID: 845398497, guid: c753b6f73ffe0ed4caa61c853bd3fd6a, type: 3}
  - m_RefCount: 1
    m_Data: {fileID: 1270125927, guid: c753b6f73ffe0ed4caa61c853bd3fd6a, type: 3}
  - m_RefCount: 1
    m_Data: {fileID: 1828691664, guid: c753b6f73ffe0ed4caa61c853bd3fd6a, type: 3}
  - m_RefCount: 1
    m_Data: {fileID: -916499525, guid: c753b6f73ffe0ed4caa61c853bd3fd6a, type: 3}
  - m_RefCount: 1
    m_Data: {fileID: -366372900, guid: c753b6f73ffe0ed4caa61c853bd3fd6a, type: 3}
  - m_RefCount: 1
    m_Data: {fileID: -1320659732, guid: c753b6f73ffe0ed4caa61c853bd3fd6a, type: 3}
  - m_RefCount: 1
    m_Data: {fileID: -1570624491, guid: c753b6f73ffe0ed4caa61c853bd3fd6a, type: 3}
  - m_RefCount: 1
    m_Data: {fileID: -251346281, guid: c753b6f73ffe0ed4caa61c853bd3fd6a, type: 3}
  - m_RefCount: 1
    m_Data: {fileID: 1804107118, guid: c753b6f73ffe0ed4caa61c853bd3fd6a, type: 3}
  - m_RefCount: 1
    m_Data: {fileID: 543352815, guid: c753b6f73ffe0ed4caa61c853bd3fd6a, type: 3}
  - m_RefCount: 1
    m_Data: {fileID: 2079662887, guid: c753b6f73ffe0ed4caa61c853bd3fd6a, type: 3}
  - m_RefCount: 1
    m_Data: {fileID: -1411161636, guid: c753b6f73ffe0ed4caa61c853bd3fd6a, type: 3}
  - m_RefCount: 1
    m_Data: {fileID: 1277015692, guid: c753b6f73ffe0ed4caa61c853bd3fd6a, type: 3}
  - m_RefCount: 1
    m_Data: {fileID: -1858431883, guid: c753b6f73ffe0ed4caa61c853bd3fd6a, type: 3}
  - m_RefCount: 1
    m_Data: {fileID: -913847656, guid: c753b6f73ffe0ed4caa61c853bd3fd6a, type: 3}
  - m_RefCount: 1
    m_Data: {fileID: 853288083, guid: c753b6f73ffe0ed4caa61c853bd3fd6a, type: 3}
  - m_RefCount: 1
    m_Data: {fileID: 1855988901, guid: c753b6f73ffe0ed4caa61c853bd3fd6a, type: 3}
  - m_RefCount: 1
    m_Data: {fileID: -1439283525, guid: c753b6f73ffe0ed4caa61c853bd3fd6a, type: 3}
  - m_RefCount: 1
    m_Data: {fileID: -1684799918, guid: c753b6f73ffe0ed4caa61c853bd3fd6a, type: 3}
  - m_RefCount: 1
    m_Data: {fileID: -725461116, guid: c753b6f73ffe0ed4caa61c853bd3fd6a, type: 3}
  - m_RefCount: 1
    m_Data: {fileID: 1073314500, guid: c753b6f73ffe0ed4caa61c853bd3fd6a, type: 3}
  - m_RefCount: 1
    m_Data: {fileID: 18950826, guid: c753b6f73ffe0ed4caa61c853bd3fd6a, type: 3}
  - m_RefCount: 1
    m_Data: {fileID: -1110971628, guid: c753b6f73ffe0ed4caa61c853bd3fd6a, type: 3}
  - m_RefCount: 1
    m_Data: {fileID: -1319864323, guid: c753b6f73ffe0ed4caa61c853bd3fd6a, type: 3}
  - m_RefCount: 1
    m_Data: {fileID: -803679710, guid: c753b6f73ffe0ed4caa61c853bd3fd6a, type: 3}
  - m_RefCount: 1
    m_Data: {fileID: -372477111, guid: c753b6f73ffe0ed4caa61c853bd3fd6a, type: 3}
  - m_RefCount: 1
    m_Data: {fileID: 2002502938, guid: c753b6f73ffe0ed4caa61c853bd3fd6a, type: 3}
  - m_RefCount: 1
    m_Data: {fileID: 1288525111, guid: c753b6f73ffe0ed4caa61c853bd3fd6a, type: 3}
  - m_RefCount: 1
    m_Data: {fileID: -1858561001, guid: c753b6f73ffe0ed4caa61c853bd3fd6a, type: 3}
  - m_RefCount: 1
    m_Data: {fileID: 296139635, guid: c753b6f73ffe0ed4caa61c853bd3fd6a, type: 3}
  - m_RefCount: 1
    m_Data: {fileID: -358827793, guid: c753b6f73ffe0ed4caa61c853bd3fd6a, type: 3}
  - m_RefCount: 1
    m_Data: {fileID: 794790490, guid: c753b6f73ffe0ed4caa61c853bd3fd6a, type: 3}
  - m_RefCount: 1
    m_Data: {fileID: -1138082225, guid: c753b6f73ffe0ed4caa61c853bd3fd6a, type: 3}
  - m_RefCount: 1
    m_Data: {fileID: -1824961645, guid: c753b6f73ffe0ed4caa61c853bd3fd6a, type: 3}
  - m_RefCount: 1
    m_Data: {fileID: -1289660196, guid: c753b6f73ffe0ed4caa61c853bd3fd6a, type: 3}
  - m_RefCount: 1
    m_Data: {fileID: -53103877, guid: c753b6f73ffe0ed4caa61c853bd3fd6a, type: 3}
  - m_RefCount: 1
    m_Data: {fileID: -273463867, guid: c753b6f73ffe0ed4caa61c853bd3fd6a, type: 3}
  - m_RefCount: 1
    m_Data: {fileID: 535164214, guid: c753b6f73ffe0ed4caa61c853bd3fd6a, type: 3}
  - m_RefCount: 1
    m_Data: {fileID: -1986240302, guid: c753b6f73ffe0ed4caa61c853bd3fd6a, type: 3}
  - m_RefCount: 1
    m_Data: {fileID: 921104373, guid: c753b6f73ffe0ed4caa61c853bd3fd6a, type: 3}
  - m_RefCount: 1
    m_Data: {fileID: -1389397320, guid: c753b6f73ffe0ed4caa61c853bd3fd6a, type: 3}
  - m_RefCount: 1
    m_Data: {fileID: 171997076, guid: c753b6f73ffe0ed4caa61c853bd3fd6a, type: 3}
  - m_RefCount: 1
    m_Data: {fileID: 1091366870, guid: c753b6f73ffe0ed4caa61c853bd3fd6a, type: 3}
  - m_RefCount: 1
    m_Data: {fileID: 1789314579, guid: c753b6f73ffe0ed4caa61c853bd3fd6a, type: 3}
  - m_RefCount: 1
    m_Data: {fileID: -9976213, guid: c753b6f73ffe0ed4caa61c853bd3fd6a, type: 3}
  - m_RefCount: 1
    m_Data: {fileID: -2141632796, guid: c753b6f73ffe0ed4caa61c853bd3fd6a, type: 3}
  - m_RefCount: 1
    m_Data: {fileID: 1565222914, guid: c753b6f73ffe0ed4caa61c853bd3fd6a, type: 3}
  - m_RefCount: 1
    m_Data: {fileID: 1405510908, guid: c753b6f73ffe0ed4caa61c853bd3fd6a, type: 3}
  - m_RefCount: 1
    m_Data: {fileID: 952888277, guid: c753b6f73ffe0ed4caa61c853bd3fd6a, type: 3}
  - m_RefCount: 1
    m_Data: {fileID: -983269402, guid: c753b6f73ffe0ed4caa61c853bd3fd6a, type: 3}
  - m_RefCount: 1
    m_Data: {fileID: 1262228876, guid: c753b6f73ffe0ed4caa61c853bd3fd6a, type: 3}
  - m_RefCount: 1
    m_Data: {fileID: -104952229, guid: c753b6f73ffe0ed4caa61c853bd3fd6a, type: 3}
  - m_RefCount: 1
    m_Data: {fileID: -645917483, guid: c753b6f73ffe0ed4caa61c853bd3fd6a, type: 3}
  - m_RefCount: 1
    m_Data: {fileID: 1987331628, guid: c753b6f73ffe0ed4caa61c853bd3fd6a, type: 3}
  - m_RefCount: 1
    m_Data: {fileID: -1674177207, guid: c753b6f73ffe0ed4caa61c853bd3fd6a, type: 3}
  - m_RefCount: 1
    m_Data: {fileID: -795317433, guid: c753b6f73ffe0ed4caa61c853bd3fd6a, type: 3}
  - m_RefCount: 1
    m_Data: {fileID: -2015723460, guid: c753b6f73ffe0ed4caa61c853bd3fd6a, type: 3}
  - m_RefCount: 1
    m_Data: {fileID: 174313283, guid: c753b6f73ffe0ed4caa61c853bd3fd6a, type: 3}
  - m_RefCount: 1
    m_Data: {fileID: 1496584944, guid: c753b6f73ffe0ed4caa61c853bd3fd6a, type: 3}
  - m_RefCount: 1
    m_Data: {fileID: 1477777176, guid: c753b6f73ffe0ed4caa61c853bd3fd6a, type: 3}
  - m_RefCount: 1
    m_Data: {fileID: -1926559696, guid: c753b6f73ffe0ed4caa61c853bd3fd6a, type: 3}
  - m_RefCount: 1
    m_Data: {fileID: -1538628443, guid: c753b6f73ffe0ed4caa61c853bd3fd6a, type: 3}
  - m_RefCount: 1
    m_Data: {fileID: -148221275, guid: c753b6f73ffe0ed4caa61c853bd3fd6a, type: 3}
  - m_RefCount: 1
    m_Data: {fileID: -97313073, guid: c753b6f73ffe0ed4caa61c853bd3fd6a, type: 3}
  - m_RefCount: 1
    m_Data: {fileID: -1761264902, guid: c753b6f73ffe0ed4caa61c853bd3fd6a, type: 3}
  - m_RefCount: 1
    m_Data: {fileID: -1425095634, guid: c753b6f73ffe0ed4caa61c853bd3fd6a, type: 3}
  - m_RefCount: 1
    m_Data: {fileID: -1116328149, guid: c753b6f73ffe0ed4caa61c853bd3fd6a, type: 3}
  - m_RefCount: 1
    m_Data: {fileID: 1860090235, guid: c753b6f73ffe0ed4caa61c853bd3fd6a, type: 3}
  - m_RefCount: 1
    m_Data: {fileID: -1540444113, guid: c753b6f73ffe0ed4caa61c853bd3fd6a, type: 3}
  - m_RefCount: 1
    m_Data: {fileID: -1958425000, guid: c753b6f73ffe0ed4caa61c853bd3fd6a, type: 3}
  - m_RefCount: 1
    m_Data: {fileID: 66419208, guid: c753b6f73ffe0ed4caa61c853bd3fd6a, type: 3}
  - m_RefCount: 1
    m_Data: {fileID: 899030910, guid: c753b6f73ffe0ed4caa61c853bd3fd6a, type: 3}
  - m_RefCount: 1
    m_Data: {fileID: -1006623829, guid: c753b6f73ffe0ed4caa61c853bd3fd6a, type: 3}
  - m_RefCount: 1
    m_Data: {fileID: 176682313, guid: c753b6f73ffe0ed4caa61c853bd3fd6a, type: 3}
  - m_RefCount: 1
    m_Data: {fileID: 1278310156, guid: c753b6f73ffe0ed4caa61c853bd3fd6a, type: 3}
  - m_RefCount: 1
    m_Data: {fileID: 1698512857, guid: c753b6f73ffe0ed4caa61c853bd3fd6a, type: 3}
  - m_RefCount: 1
    m_Data: {fileID: -909488843, guid: c753b6f73ffe0ed4caa61c853bd3fd6a, type: 3}
  - m_RefCount: 1
    m_Data: {fileID: -666804612, guid: c753b6f73ffe0ed4caa61c853bd3fd6a, type: 3}
  - m_RefCount: 1
    m_Data: {fileID: 606725076, guid: c753b6f73ffe0ed4caa61c853bd3fd6a, type: 3}
  - m_RefCount: 1
    m_Data: {fileID: -1616829407, guid: c753b6f73ffe0ed4caa61c853bd3fd6a, type: 3}
  - m_RefCount: 1
    m_Data: {fileID: -1072473810, guid: c753b6f73ffe0ed4caa61c853bd3fd6a, type: 3}
  - m_RefCount: 1
    m_Data: {fileID: 747939675, guid: c753b6f73ffe0ed4caa61c853bd3fd6a, type: 3}
  - m_RefCount: 1
    m_Data: {fileID: 1342492810, guid: c753b6f73ffe0ed4caa61c853bd3fd6a, type: 3}
  - m_RefCount: 1
    m_Data: {fileID: -1104600680, guid: c753b6f73ffe0ed4caa61c853bd3fd6a, type: 3}
  - m_RefCount: 1
    m_Data: {fileID: 1384713935, guid: c753b6f73ffe0ed4caa61c853bd3fd6a, type: 3}
  - m_RefCount: 1
    m_Data: {fileID: -2130363140, guid: c753b6f73ffe0ed4caa61c853bd3fd6a, type: 3}
  - m_RefCount: 1
    m_Data: {fileID: 1123931739, guid: c753b6f73ffe0ed4caa61c853bd3fd6a, type: 3}
  - m_RefCount: 1
    m_Data: {fileID: -816350818, guid: c753b6f73ffe0ed4caa61c853bd3fd6a, type: 3}
  - m_RefCount: 1
    m_Data: {fileID: 1450565314, guid: c753b6f73ffe0ed4caa61c853bd3fd6a, type: 3}
  - m_RefCount: 1
    m_Data: {fileID: -40410584, guid: c753b6f73ffe0ed4caa61c853bd3fd6a, type: 3}
  - m_RefCount: 1
    m_Data: {fileID: 1253358725, guid: c753b6f73ffe0ed4caa61c853bd3fd6a, type: 3}
  - m_RefCount: 1
    m_Data: {fileID: -1739744322, guid: c753b6f73ffe0ed4caa61c853bd3fd6a, type: 3}
  - m_RefCount: 1
    m_Data: {fileID: -111835617, guid: c753b6f73ffe0ed4caa61c853bd3fd6a, type: 3}
  - m_RefCount: 1
    m_Data: {fileID: -1733217175, guid: c753b6f73ffe0ed4caa61c853bd3fd6a, type: 3}
  - m_RefCount: 1
    m_Data: {fileID: 1769212826, guid: c753b6f73ffe0ed4caa61c853bd3fd6a, type: 3}
  - m_RefCount: 1
    m_Data: {fileID: -1567954108, guid: c753b6f73ffe0ed4caa61c853bd3fd6a, type: 3}
  - m_RefCount: 1
    m_Data: {fileID: 194948769, guid: c753b6f73ffe0ed4caa61c853bd3fd6a, type: 3}
  - m_RefCount: 1
    m_Data: {fileID: -2090043425, guid: c753b6f73ffe0ed4caa61c853bd3fd6a, type: 3}
  - m_RefCount: 1
    m_Data: {fileID: -855591550, guid: c753b6f73ffe0ed4caa61c853bd3fd6a, type: 3}
  - m_RefCount: 1
    m_Data: {fileID: -1212289982, guid: c753b6f73ffe0ed4caa61c853bd3fd6a, type: 3}
  - m_RefCount: 1
    m_Data: {fileID: -1057399376, guid: c753b6f73ffe0ed4caa61c853bd3fd6a, type: 3}
  - m_RefCount: 1
    m_Data: {fileID: -1356535265, guid: c753b6f73ffe0ed4caa61c853bd3fd6a, type: 3}
  - m_RefCount: 1
    m_Data: {fileID: -1635744983, guid: c753b6f73ffe0ed4caa61c853bd3fd6a, type: 3}
  - m_RefCount: 1
    m_Data: {fileID: 1077691119, guid: c753b6f73ffe0ed4caa61c853bd3fd6a, type: 3}
  - m_RefCount: 1
    m_Data: {fileID: -714115210, guid: c753b6f73ffe0ed4caa61c853bd3fd6a, type: 3}
  - m_RefCount: 1
    m_Data: {fileID: -1799185717, guid: c753b6f73ffe0ed4caa61c853bd3fd6a, type: 3}
  - m_RefCount: 1
    m_Data: {fileID: -551292346, guid: c753b6f73ffe0ed4caa61c853bd3fd6a, type: 3}
  - m_RefCount: 1
    m_Data: {fileID: -139872374, guid: c753b6f73ffe0ed4caa61c853bd3fd6a, type: 3}
  - m_RefCount: 1
    m_Data: {fileID: -938088822, guid: c753b6f73ffe0ed4caa61c853bd3fd6a, type: 3}
  - m_RefCount: 1
    m_Data: {fileID: 1988951898, guid: c753b6f73ffe0ed4caa61c853bd3fd6a, type: 3}
  - m_RefCount: 1
    m_Data: {fileID: -1475851355, guid: c753b6f73ffe0ed4caa61c853bd3fd6a, type: 3}
  - m_RefCount: 1
    m_Data: {fileID: 57087959, guid: c753b6f73ffe0ed4caa61c853bd3fd6a, type: 3}
  - m_RefCount: 1
    m_Data: {fileID: -1715717176, guid: c753b6f73ffe0ed4caa61c853bd3fd6a, type: 3}
  - m_RefCount: 1
    m_Data: {fileID: -1562559980, guid: c753b6f73ffe0ed4caa61c853bd3fd6a, type: 3}
  - m_RefCount: 1
    m_Data: {fileID: -1151956085, guid: c753b6f73ffe0ed4caa61c853bd3fd6a, type: 3}
  - m_RefCount: 1
    m_Data: {fileID: 716378679, guid: c753b6f73ffe0ed4caa61c853bd3fd6a, type: 3}
  - m_RefCount: 1
    m_Data: {fileID: -1068224421, guid: c753b6f73ffe0ed4caa61c853bd3fd6a, type: 3}
  - m_RefCount: 1
    m_Data: {fileID: 21143697, guid: c753b6f73ffe0ed4caa61c853bd3fd6a, type: 3}
  - m_RefCount: 1
    m_Data: {fileID: 521813770, guid: c753b6f73ffe0ed4caa61c853bd3fd6a, type: 3}
  - m_RefCount: 1
    m_Data: {fileID: -535700081, guid: c753b6f73ffe0ed4caa61c853bd3fd6a, type: 3}
  - m_RefCount: 1
    m_Data: {fileID: -400967982, guid: c753b6f73ffe0ed4caa61c853bd3fd6a, type: 3}
  - m_RefCount: 1
    m_Data: {fileID: -748427241, guid: c753b6f73ffe0ed4caa61c853bd3fd6a, type: 3}
  - m_RefCount: 1
    m_Data: {fileID: -2062094565, guid: c753b6f73ffe0ed4caa61c853bd3fd6a, type: 3}
  - m_RefCount: 1
    m_Data: {fileID: -708355129, guid: c753b6f73ffe0ed4caa61c853bd3fd6a, type: 3}
  - m_RefCount: 1
    m_Data: {fileID: -1997748642, guid: c753b6f73ffe0ed4caa61c853bd3fd6a, type: 3}
  - m_RefCount: 1
    m_Data: {fileID: 991697467, guid: c753b6f73ffe0ed4caa61c853bd3fd6a, type: 3}
  - m_RefCount: 1
    m_Data: {fileID: -674848446, guid: c753b6f73ffe0ed4caa61c853bd3fd6a, type: 3}
  m_TileMatrixArray:
  - m_RefCount: 180
    m_Data:
      e00: 1
      e01: 0
      e02: 0
      e03: 0
      e10: 0
      e11: 1
      e12: 0
      e13: 0
      e20: 0
      e21: 0
      e22: 1
      e23: 0
      e30: 0
      e31: 0
      e32: 0
      e33: 1
  m_TileColorArray:
  - m_RefCount: 180
    m_Data: {r: 1, g: 1, b: 1, a: 1}
  m_TileObjectToInstantiateArray: []
  m_AnimationFrameRate: 1
  m_Color: {r: 1, g: 1, b: 1, a: 1}
  m_Origin: {x: 0, y: -8, z: 0}
  m_Size: {x: 20, y: 9, z: 1}
  m_TileAnchor: {x: 0.5, y: 0.5, z: 0}
  m_TileOrientation: 0
  m_TileOrientationMatrix:
    e00: 1
    e01: 0
    e02: 0
    e03: 0
    e10: 0
    e11: 1
    e12: 0
    e13: 0
    e20: 0
    e21: 0
    e22: 1
    e23: 0
    e30: 0
    e31: 0
    e32: 0
    e33: 1
--- !u!483693784 &4276666593265766773
TilemapRenderer:
  m_ObjectHideFlags: 0
  m_CorrespondingSourceObject: {fileID: 0}
  m_PrefabInstance: {fileID: 0}
  m_PrefabAsset: {fileID: 0}
  m_GameObject: {fileID: 7582913429681297737}
  m_Enabled: 1
  m_CastShadows: 0
  m_ReceiveShadows: 0
  m_DynamicOccludee: 0
  m_StaticShadowCaster: 0
  m_MotionVectors: 1
  m_LightProbeUsage: 0
  m_ReflectionProbeUsage: 0
  m_RayTracingMode: 0
  m_RayTraceProcedural: 0
  m_RenderingLayerMask: 1
  m_RendererPriority: 0
  m_Materials:
  - {fileID: 10754, guid: 0000000000000000f000000000000000, type: 0}
  m_StaticBatchInfo:
    firstSubMesh: 0
    subMeshCount: 0
  m_StaticBatchRoot: {fileID: 0}
  m_ProbeAnchor: {fileID: 0}
  m_LightProbeVolumeOverride: {fileID: 0}
  m_ScaleInLightmap: 1
  m_ReceiveGI: 1
  m_PreserveUVs: 0
  m_IgnoreNormalsForChartDetection: 0
  m_ImportantGI: 0
  m_StitchLightmapSeams: 1
  m_SelectedEditorRenderState: 0
  m_MinimumChartSize: 4
  m_AutoUVMaxDistance: 0.5
  m_AutoUVMaxAngle: 89
  m_LightmapParameters: {fileID: 0}
  m_SortingLayerID: 0
  m_SortingLayer: 0
  m_SortingOrder: 0
  m_ChunkSize: {x: 32, y: 32, z: 32}
  m_ChunkCullingBounds: {x: 0, y: 0, z: 0}
  m_MaxChunkCount: 16
  m_MaxFrameAge: 16
  m_SortOrder: 0
  m_Mode: 0
  m_DetectChunkCullingBounds: 0
  m_MaskInteraction: 0
--- !u!114 &1359032851551935112
MonoBehaviour:
  m_ObjectHideFlags: 0
  m_CorrespondingSourceObject: {fileID: 0}
  m_PrefabInstance: {fileID: 0}
  m_PrefabAsset: {fileID: 0}
  m_GameObject: {fileID: 0}
  m_Enabled: 1
  m_EditorHideFlags: 0
  m_Script: {fileID: 12395, guid: 0000000000000000e000000000000000, type: 0}
  m_Name: Palette Settings
  m_EditorClassIdentifier: 
  cellSizing: 0
  m_TransparencySortMode: 0
  m_TransparencySortAxis: {x: 0, y: 0, z: 1}
